{
  "id": [
    "11747693"
  ],
  "source": [
    "MED"
  ],
  "pmid": [
    "11747693"
  ],
  "pmcid": [
    "PMC2631888"
  ],
  "doi": [
    "10.3201/eid0705.017507"
  ],
  "title": [
    "Factors contributing to the emergence of Escherichia coli O157 in Africa."
  ],
  "authorString": [
    "Effler E, Isaäcson M, Arntzen L, Heenan R, Canter P, Barrett T, Lee L, Mambo C, Levine W, Zaidi A, Griffin PM."
  ],
  "authorList": [
    {
      "author": [
        {
          "fullName": [
            "Effler E"
          ],
          "lastName": [
            "Effler"
          ],
          "initials": [
            "E"
          ]
        },
        {
          "fullName": [
            "Isaäcson M"
          ],
          "lastName": [
            "Isaäcson"
          ],
          "initials": [
            "M"
          ]
        },
        {
          "fullName": [
            "Arntzen L"
          ],
          "lastName": [
            "Arntzen"
          ],
          "initials": [
            "L"
          ]
        },
        {
          "fullName": [
            "Heenan R"
          ],
          "lastName": [
            "Heenan"
          ],
          "initials": [
            "R"
          ]
        },
        {
          "fullName": [
            "Canter P"
          ],
          "lastName": [
            "Canter"
          ],
          "initials": [
            "P"
          ]
        },
        {
          "fullName": [
            "Barrett T"
          ],
          "lastName": [
            "Barrett"
          ],
          "initials": [
            "T"
          ]
        },
        {
          "fullName": [
            "Lee L"
          ],
          "lastName": [
            "Lee"
          ],
          "initials": [
            "L"
          ]
        },
        {
          "fullName": [
            "Mambo C"
          ],
          "lastName": [
            "Mambo"
          ],
          "initials": [
            "C"
          ]
        },
        {
          "fullName": [
            "Levine W"
          ],
          "lastName": [
            "Levine"
          ],
          "initials": [
            "W"
          ]
        },
        {
          "fullName": [
            "Zaidi A"
          ],
          "lastName": [
            "Zaidi"
          ],
          "initials": [
            "A"
          ]
        },
        {
          "fullName": [
            "Griffin PM"
          ],
          "lastName": [
            "Griffin"
          ],
          "initials": [
            "PM"
          ]
        }
      ]
    }
  ],
  "journalInfo": [
    {
      "issue": [
        "5"
      ],
      "volume": [
        "7"
      ],
      "journalIssueId": [
        "1037415"
      ],
      "dateOfPublication": [
        "2001 Sep-Oct"
      ],
      "monthOfPublication": [
        "0"
      ],
      "yearOfPublication": [
        "2001"
      ],
      "printPublicationDate": [
        "2001-09-01"
      ],
      "journal": [
        {
          "title": [
            "Emerging infectious diseases"
          ],
          "ISOAbbreviation": [
            "Emerging Infect. Dis."
          ],
          "medlineAbbreviation": [
            "Emerg Infect Dis"
          ],
          "NLMid": [
            "9508155"
          ],
          "ISSN": [
            "1080-6040"
          ],
          "ESSN": [
            "1080-6059"
          ]
        }
      ]
    }
  ],
  "pageInfo": [
    "812-819"
  ],
  "abstractText": [
    "In 1992, a large outbreak of bloody diarrhea caused by Escherichia coli O157 infections occurred in southern Africa. In Swaziland, 40,912 physician visits for diarrhea in persons ages >5 years were reported during October through November 1992. This was a sevenfold increase over the same period during 1990-91. The attack rate was 42% among 778 residents we surveyed. Female gender and consuming beef and untreated water were significant risks for illness. E. coli O157:NM was recovered from seven affected foci in Swaziland and South Africa; 27 of 31 patient and environmental isolates had indistinguishable pulsed-field gel electrophoresis patterns. Compared with previous years, a fivefold increase in cattle deaths occurred in October 1992. The first heavy rains fell that same month (36 mm), following 3 months of drought. Drought, carriage of E. coli O157 by cattle, and heavy rains with contamination of surface water appear to be important factors contributing to this outbreak."
  ],
  "affiliation": [
    "Centers for Disease Control and Prevention, Atlanta, Georgia 30333, USA. pveffler@mail.health.state.hi.us"
  ],
  "language": [
    "eng"
  ],
  "pubModel": [
    "Print"
  ],
  "pubTypeList": [
    {
      "pubType": [
        "Journal Article",
        "Research Support, Non-U.S. Gov't"
      ]
    }
  ],
  "meshHeadingList": [
    {
      "meshHeading": [
        {
          "majorTopic_YN": [
            "N"
          ],
          "descriptorName": [
            "Animals"
          ]
        },
        {
          "majorTopic_YN": [
            "N"
          ],
          "descriptorName": [
            "Cattle"
          ]
        },
        {
          "majorTopic_YN": [
            "N"
          ],
          "descriptorName": [
            "Humans"
          ]
        },
        {
          "majorTopic_YN": [
            "N"
          ],
          "descriptorName": [
            "Escherichia coli O157"
          ],
          "meshQualifierList": [
            {
              "meshQualifier": [
                {
                  "abbreviation": [
                    "CL"
                  ],
                  "qualifierName": [
                    "classification"
                  ],
                  "majorTopic_YN": [
                    "N"
                  ]
                },
                {
                  "abbreviation": [
                    "GE"
                  ],
                  "qualifierName": [
                    "genetics"
                  ],
                  "majorTopic_YN": [
                    "N"
                  ]
                },
                {
                  "abbreviation": [
                    "IP"
                  ],
                  "qualifierName": [
                    "isolation & purification"
                  ],
                  "majorTopic_YN": [
                    "Y"
                  ]
                }
              ]
            }
          ]
        },
        {
          "majorTopic_YN": [
            "N"
          ],
          "descriptorName": [
            "Escherichia coli Infections"
          ],
          "meshQualifierList": [
            {
              "meshQualifier": [
                {
                  "abbreviation": [
                    "MI"
                  ],
                  "qualifierName": [
                    "microbiology"
                  ],
                  "majorTopic_YN": [
                    "N"
                  ]
                },
                {
                  "abbreviation": [
                    "EP"
                  ],
                  "qualifierName": [
                    "epidemiology"
                  ],
                  "majorTopic_YN": [
                    "Y"
                  ]
                }
              ]
            }
          ]
        },
        {
          "majorTopic_YN": [
            "N"
          ],
          "descriptorName": [
            "Communicable Diseases, Emerging"
          ],
          "meshQualifierList": [
            {
              "meshQualifier": [
                {
                  "abbreviation": [
                    "MI"
                  ],
                  "qualifierName": [
                    "microbiology"
                  ],
                  "majorTopic_YN": [
                    "N"
                  ]
                },
                {
                  "abbreviation": [
                    "EP"
                  ],
                  "qualifierName": [
                    "epidemiology"
                  ],
                  "majorTopic_YN": [
                    "Y"
                  ]
                }
              ]
            }
          ]
        },
        {
          "majorTopic_YN": [
            "N"
          ],
          "descriptorName": [
            "Cattle Diseases"
          ],
          "meshQualifierList": [
            {
              "meshQualifier": [
                {
                  "abbreviation": [
                    "MI"
                  ],
                  "qualifierName": [
                    "microbiology"
                  ],
                  "majorTopic_YN": [
                    "N"
                  ]
                },
                {
                  "abbreviation": [
                    "EP"
                  ],
                  "qualifierName": [
                    "epidemiology"
                  ],
                  "majorTopic_YN": [
                    "N"
                  ]
                }
              ]
            }
          ]
        },
        {
          "majorTopic_YN": [
            "N"
          ],
          "descriptorName": [
            "Diarrhea"
          ],
          "meshQualifierList": [
            {
              "meshQualifier": [
                {
                  "abbreviation": [
                    "MI"
                  ],
                  "qualifierName": [
                    "microbiology"
                  ],
                  "majorTopic_YN": [
                    "N"
                  ]
                },
                {
                  "abbreviation": [
                    "EP"
                  ],
                  "qualifierName": [
                    "epidemiology"
                  ],
                  "majorTopic_YN": [
                    "Y"
                  ]
                }
              ]
            }
          ]
        },
        {
          "majorTopic_YN": [
            "N"
          ],
          "descriptorName": [
            "Population Surveillance"
          ]
        },
        {
          "majorTopic_YN": [
            "N"
          ],
          "descriptorName": [
            "Risk Factors"
          ]
        },
        {
          "majorTopic_YN": [
            "Y"
          ],
          "descriptorName": [
            "Disease Outbreaks"
          ]
        },
        {
          "majorTopic_YN": [
            "N"
          ],
          "descriptorName": [
            "Child, Preschool"
          ]
        },
        {
          "majorTopic_YN": [
            "N"
          ],
          "descriptorName": [
            "Infant"
          ]
        },
        {
          "majorTopic_YN": [
            "N"
          ],
          "descriptorName": [
            "Africa, Southern"
          ],
          "meshQualifierList": [
            {
              "meshQualifier": [
                {
                  "abbreviation": [
                    "EP"
                  ],
                  "qualifierName": [
                    "epidemiology"
                  ],
                  "majorTopic_YN": [
                    "N"
                  ]
                }
              ]
            }
          ]
        }
      ]
    }
  ],
  "subsetList": [
    {
      "subset": [
        {
          "code": [
            "IM"
          ],
          "name": [
            "Index Medicus"
          ]
        }
      ]
    }
  ],
  "fullTextUrlList": [
    {
      "fullTextUrl": [
        {
          "availability": [
            "Open access"
          ],
          "availabilityCode": [
            "OA"
          ],
          "documentStyle": [
            "pdf"
          ],
          "site": [
            "Europe_PMC"
          ],
          "url": [
            "http://europepmc.org/articles/PMC2631888?pdf=render"
          ]
        },
        {
          "availability": [
            "Open access"
          ],
          "availabilityCode": [
            "OA"
          ],
          "documentStyle": [
            "html"
          ],
          "site": [
            "Europe_PMC"
          ],
          "url": [
            "http://europepmc.org/articles/PMC2631888"
          ]
        },
        {
          "availability": [
            "Subscription required"
          ],
          "availabilityCode": [
            "S"
          ],
          "documentStyle": [
            "doi"
          ],
          "site": [
            "DOI"
          ],
          "url": [
            "http://dx.doi.org/10.3201/eid0705.017507"
          ]
        }
      ]
    }
  ],
  "isOpenAccess": [
    "Y"
  ],
  "inEPMC": [
    "Y"
  ],
  "inPMC": [
    "N"
  ],
  "hasPDF": [
    "Y"
  ],
  "hasBook": [
    "N"
  ],
  "hasSuppl": [
    "N"
  ],
  "citedByCount": [
    "20"
  ],
  "hasReferences": [
    "Y"
  ],
  "hasTextMinedTerms": [
    "Y"
  ],
  "hasDbCrossReferences": [
    "N"
  ],
  "hasLabsLinks": [
    "N"
  ],
  "epmcAuthMan": [
    "N"
  ],
  "hasTMAccessionNumbers": [
    "N"
  ],
  "dateOfCompletion": [
    "2002-02-15"
  ],
  "dateOfCreation": [
    "2001-12-18"
  ],
  "dateOfRevision": [
    "2009-11-18"
  ],
  "firstPublicationDate": [
    "2001-09-01"
  ],
  "luceneScore": [
    "NaN"
  ]
}