{
  "id": [
    "21283611"
  ],
  "source": [
    "MED"
  ],
  "pmid": [
    "21283611"
  ],
  "pmcid": [
    "PMC3026764"
  ],
  "doi": [
    "10.1371/journal.pntd.0001003"
  ],
  "title": [
    "The cholera pandemic, still with us after half a century: time to rethink."
  ],
  "authorString": [
    "Ryan ET."
  ],
  "authorList": [
    {
      "author": [
        {
          "fullName": [
            "Ryan ET"
          ],
          "firstName": [
            "Edward T"
          ],
          "lastName": [
            "Ryan"
          ],
          "initials": [
            "ET"
          ]
        }
      ]
    }
  ],
  "journalInfo": [
    {
      "issue": [
        "1"
      ],
      "volume": [
        "5"
      ],
      "journalIssueId": [
        "1800766"
      ],
      "dateOfPublication": [
        "2011 "
      ],
      "monthOfPublication": [
        "0"
      ],
      "yearOfPublication": [
        "2011"
      ],
      "printPublicationDate": [
        "2011-01-01"
      ],
      "journal": [
        {
          "title": [
            "PLoS neglected tropical diseases"
          ],
          "ISOAbbreviation": [
            "PLoS Negl Trop Dis"
          ],
          "medlineAbbreviation": [
            "PLoS Negl Trop Dis"
          ],
          "NLMid": [
            "101291488"
          ],
          "ISSN": [
            "1935-2727"
          ],
          "ESSN": [
            "1935-2735"
          ]
        }
      ]
    }
  ],
  "pageInfo": [
    "e1003"
  ],
  "abstractText": [
    " "
  ],
  "language": [
    "eng"
  ],
  "pubModel": [
    "Electronic"
  ],
  "pubTypeList": [
    {
      "pubType": [
        "Editorial"
      ]
    }
  ],
  "meshHeadingList": [
    {
      "meshHeading": [
        {
          "majorTopic_YN": [
            "N"
          ],
          "descriptorName": [
            "Humans"
          ]
        },
        {
          "majorTopic_YN": [
            "N"
          ],
          "descriptorName": [
            "Cholera"
          ],
          "meshQualifierList": [
            {
              "meshQualifier": [
                {
                  "abbreviation": [
                    "EP"
                  ],
                  "qualifierName": [
                    "epidemiology"
                  ],
                  "majorTopic_YN": [
                    "Y"
                  ]
                },
                {
                  "abbreviation": [
                    "PC"
                  ],
                  "qualifierName": [
                    "prevention & control"
                  ],
                  "majorTopic_YN": [
                    "Y"
                  ]
                }
              ]
            }
          ]
        },
        {
          "majorTopic_YN": [
            "N"
          ],
          "descriptorName": [
            "Cholera Vaccines"
          ],
          "meshQualifierList": [
            {
              "meshQualifier": [
                {
                  "abbreviation": [
                    "AD"
                  ],
                  "qualifierName": [
                    "administration & dosage"
                  ],
                  "majorTopic_YN": [
                    "N"
                  ]
                },
                {
                  "abbreviation": [
                    "IM"
                  ],
                  "qualifierName": [
                    "immunology"
                  ],
                  "majorTopic_YN": [
                    "N"
                  ]
                }
              ]
            }
          ]
        },
        {
          "majorTopic_YN": [
            "N"
          ],
          "descriptorName": [
            "Communicable Disease Control"
          ],
          "meshQualifierList": [
            {
              "meshQualifier": [
                {
                  "abbreviation": [
                    "MT"
                  ],
                  "qualifierName": [
                    "methods"
                  ],
                  "majorTopic_YN": [
                    "Y"
                  ]
                }
              ]
            }
          ]
        },
        {
          "majorTopic_YN": [
            "N"
          ],
          "descriptorName": [
            "Pandemics"
          ],
          "meshQualifierList": [
            {
              "meshQualifier": [
                {
                  "abbreviation": [
                    "PC"
                  ],
                  "qualifierName": [
                    "prevention & control"
                  ],
                  "majorTopic_YN": [
                    "Y"
                  ]
                }
              ]
            }
          ]
        }
      ]
    }
  ],
  "chemicalList": [
    {
      "chemical": [
        {
          "name": [
            "Cholera Vaccines"
          ],
          "registryNumber": [
            "0"
          ]
        }
      ]
    }
  ],
  "subsetList": [
    {
      "subset": [
        {
          "code": [
            "IM"
          ],
          "name": [
            "Index Medicus"
          ]
        }
      ]
    }
  ],
  "fullTextUrlList": [
    {
      "fullTextUrl": [
        {
          "availability": [
            "Open access"
          ],
          "availabilityCode": [
            "OA"
          ],
          "documentStyle": [
            "pdf"
          ],
          "site": [
            "Europe_PMC"
          ],
          "url": [
            "http://europepmc.org/articles/PMC3026764?pdf=render"
          ]
        },
        {
          "availability": [
            "Open access"
          ],
          "availabilityCode": [
            "OA"
          ],
          "documentStyle": [
            "html"
          ],
          "site": [
            "Europe_PMC"
          ],
          "url": [
            "http://europepmc.org/articles/PMC3026764"
          ]
        },
        {
          "availability": [
            "Free"
          ],
          "availabilityCode": [
            "F"
          ],
          "documentStyle": [
            "html"
          ],
          "site": [
            "PubMedCentral"
          ],
          "url": [
            "http://www.pubmedcentral.nih.gov/articlerender.fcgi?tool=EBI&pubmedid=21283611"
          ]
        },
        {
          "availability": [
            "Free"
          ],
          "availabilityCode": [
            "F"
          ],
          "documentStyle": [
            "pdf"
          ],
          "site": [
            "PubMedCentral"
          ],
          "url": [
            "http://www.pubmedcentral.nih.gov/picrender.fcgi?tool=EBI&pubmedid=21283611&action=stream&blobtype=pdf"
          ]
        },
        {
          "availability": [
            "Subscription required"
          ],
          "availabilityCode": [
            "S"
          ],
          "documentStyle": [
            "doi"
          ],
          "site": [
            "DOI"
          ],
          "url": [
            "http://dx.doi.org/10.1371/journal.pntd.0001003"
          ]
        }
      ]
    }
  ],
  "isOpenAccess": [
    "Y"
  ],
  "inEPMC": [
    "Y"
  ],
  "inPMC": [
    "Y"
  ],
  "hasPDF": [
    "Y"
  ],
  "hasBook": [
    "N"
  ],
  "hasSuppl": [
    "N"
  ],
  "citedByCount": [
    "17"
  ],
  "hasReferences": [
    "Y"
  ],
  "hasTextMinedTerms": [
    "Y"
  ],
  "hasDbCrossReferences": [
    "N"
  ],
  "hasLabsLinks": [
    "N"
  ],
  "epmcAuthMan": [
    "N"
  ],
  "hasTMAccessionNumbers": [
    "N"
  ],
  "dateOfCompletion": [
    "2011-04-20"
  ],
  "dateOfCreation": [
    "2011-02-01"
  ],
  "dateOfRevision": [
    "2013-06-30"
  ],
  "electronicPublicationDate": [
    "2011-01-25"
  ],
  "firstPublicationDate": [
    "2011-01-25"
  ],
  "luceneScore": [
    "NaN"
  ]
}