{
  "id": [
    "26306510"
  ],
  "source": [
    "MED"
  ],
  "pmid": [
    "26306510"
  ],
  "pmcid": [
    "PMC4550055"
  ],
  "doi": [
    "10.1186/s12862-015-0456-4"
  ],
  "title": [
    "Genomic analysis of codon usage shows influence of mutation pressure, natural selection, and host features on Marburg virus evolution."
  ],
  "authorString": [
    "Nasrullah I, Butt AM, Tahir S, Idrees M, Tong Y."
  ],
  "authorList": [
    {
      "author": [
        {
          "fullName": [
            "Nasrullah I"
          ],
          "firstName": [
            "Izza"
          ],
          "lastName": [
            "Nasrullah"
          ],
          "initials": [
            "I"
          ],
          "affiliation": [
            "Department of Biochemistry, Faculty of Biological Sciences, Quaid-i-Azam University, Islamabad, 45320, Pakistan. izzanasrullah@gmail.com."
          ]
        },
        {
          "fullName": [
            "Butt AM"
          ],
          "firstName": [
            "Azeem M"
          ],
          "lastName": [
            "Butt"
          ],
          "initials": [
            "AM"
          ],
          "authorId": [
            {
              "_": "0000-0001-5897-6848",
              "$": {
                "type": "ORCID"
              }
            }
          ],
          "affiliation": [
            "Centre of Excellence in Molecular Biology (CEMB), University of the Punjab, Lahore, 53700, Pakistan. azeem@cemb.edu.pk."
          ]
        },
        {
          "fullName": [
            "Tahir S"
          ],
          "firstName": [
            "Shifa"
          ],
          "lastName": [
            "Tahir"
          ],
          "initials": [
            "S"
          ],
          "affiliation": [
            "Université François Rabelais de Tours, Tours, F-37380, France. shifa.tahir@tours.inra.fr."
          ]
        },
        {
          "fullName": [
            "Idrees M"
          ],
          "firstName": [
            "Muhammad"
          ],
          "lastName": [
            "Idrees"
          ],
          "initials": [
            "M"
          ],
          "authorId": [
            {
              "_": "0000-0001-5783-1372",
              "$": {
                "type": "ORCID"
              }
            }
          ],
          "affiliation": [
            "Centre of Excellence in Molecular Biology (CEMB), University of the Punjab, Lahore, 53700, Pakistan. idreeskhan@cemb.edu.pk."
          ]
        },
        {
          "fullName": [
            "Tong Y"
          ],
          "firstName": [
            "Yigang"
          ],
          "lastName": [
            "Tong"
          ],
          "initials": [
            "Y"
          ],
          "authorId": [
            {
              "_": "0000-0002-8503-8045",
              "$": {
                "type": "ORCID"
              }
            }
          ],
          "affiliation": [
            "State Key Laboratory of Pathogen and Biosecurity, Beijing Institute of Microbiology and Epidemiology, Beijing, 100071, People's Republic of China. tong.yigang@gmail.com."
          ]
        }
      ]
    }
  ],
  "authorIdList": [
    {
      "authorId": [
        {
          "_": "0000-0001-5897-6848",
          "$": {
            "type": "ORCID"
          }
        },
        {
          "_": "0000-0001-5783-1372",
          "$": {
            "type": "ORCID"
          }
        },
        {
          "_": "0000-0002-8503-8045",
          "$": {
            "type": "ORCID"
          }
        }
      ]
    }
  ],
  "journalInfo": [
    {
      "volume": [
        "15"
      ],
      "journalIssueId": [
        "2259071"
      ],
      "dateOfPublication": [
        "2015 "
      ],
      "monthOfPublication": [
        "0"
      ],
      "yearOfPublication": [
        "2015"
      ],
      "printPublicationDate": [
        "2015-01-01"
      ],
      "journal": [
        {
          "title": [
            "BMC evolutionary biology"
          ],
          "ISOAbbreviation": [
            "BMC Evol. Biol."
          ],
          "medlineAbbreviation": [
            "BMC Evol Biol"
          ],
          "NLMid": [
            "100966975"
          ],
          "ESSN": [
            "1471-2148"
          ]
        }
      ]
    }
  ],
  "pageInfo": [
    "174"
  ],
  "abstractText": [
    "The Marburg virus (MARV) has a negative-sense single-stranded RNA genome, belongs to the family Filoviridae, and is responsible for several outbreaks of highly fatal hemorrhagic fever. Codon usage patterns of viruses reflect a series of evolutionary changes that enable viruses to shape their survival rates and fitness toward the external environment and, most importantly, their hosts. To understand the evolution of MARV at the codon level, we report a comprehensive analysis of synonymous codon usage patterns in MARV genomes. Multiple codon analysis approaches and statistical methods were performed to determine overall codon usage patterns, biases in codon usage, and influence of various factors, including mutation pressure, natural selection, and its two hosts, Homo sapiens and Rousettus aegyptiacus.Nucleotide composition and relative synonymous codon usage (RSCU) analysis revealed that MARV shows mutation bias and prefers U- and A-ended codons to code amino acids. Effective number of codons analysis indicated that overall codon usage among MARV genomes is slightly biased. The Parity Rule 2 plot analysis showed that GC and AU nucleotides were not used proportionally which accounts for the presence of natural selection. Codon usage patterns of MARV were also found to be influenced by its hosts. This indicates that MARV have evolved codon usage patterns that are specific to both of its hosts. Moreover, selection pressure from R. aegyptiacus on the MARV RSCU patterns was found to be dominant compared with that from H. sapiens. Overall, mutation pressure was found to be the most important and dominant force that shapes codon usage patterns in MARV.To our knowledge, this is the first detailed codon usage analysis of MARV and extends our understanding of the mechanisms that contribute to codon usage and evolution of MARV."
  ],
  "affiliation": [
    "Department of Biochemistry, Faculty of Biological Sciences, Quaid-i-Azam University, Islamabad, 45320, Pakistan. izzanasrullah@gmail.com."
  ],
  "language": [
    "eng"
  ],
  "pubModel": [
    "Electronic"
  ],
  "pubTypeList": [
    {
      "pubType": [
        "Journal Article",
        "Research Support, Non-U.S. Gov't"
      ]
    }
  ],
  "meshHeadingList": [
    {
      "meshHeading": [
        {
          "majorTopic_YN": [
            "N"
          ],
          "descriptorName": [
            "Animals"
          ]
        },
        {
          "majorTopic_YN": [
            "N"
          ],
          "descriptorName": [
            "Chiroptera"
          ],
          "meshQualifierList": [
            {
              "meshQualifier": [
                {
                  "abbreviation": [
                    "VI"
                  ],
                  "qualifierName": [
                    "virology"
                  ],
                  "majorTopic_YN": [
                    "N"
                  ]
                }
              ]
            }
          ]
        },
        {
          "majorTopic_YN": [
            "N"
          ],
          "descriptorName": [
            "Humans"
          ]
        },
        {
          "majorTopic_YN": [
            "Y"
          ],
          "descriptorName": [
            "Codon"
          ]
        },
        {
          "majorTopic_YN": [
            "Y"
          ],
          "descriptorName": [
            "Evolution, Molecular"
          ]
        },
        {
          "majorTopic_YN": [
            "N"
          ],
          "descriptorName": [
            "Mutation"
          ]
        },
        {
          "majorTopic_YN": [
            "N"
          ],
          "descriptorName": [
            "Genome, Viral"
          ]
        },
        {
          "majorTopic_YN": [
            "N"
          ],
          "descriptorName": [
            "Marburgvirus"
          ],
          "meshQualifierList": [
            {
              "meshQualifier": [
                {
                  "abbreviation": [
                    "GE"
                  ],
                  "qualifierName": [
                    "genetics"
                  ],
                  "majorTopic_YN": [
                    "Y"
                  ]
                }
              ]
            }
          ]
        },
        {
          "majorTopic_YN": [
            "N"
          ],
          "descriptorName": [
            "Selection, Genetic"
          ]
        },
        {
          "majorTopic_YN": [
            "N"
          ],
          "descriptorName": [
            "Biological Evolution"
          ]
        }
      ]
    }
  ],
  "chemicalList": [
    {
      "chemical": [
        {
          "name": [
            "Codon"
          ],
          "registryNumber": [
            "0"
          ]
        }
      ]
    }
  ],
  "subsetList": [
    {
      "subset": [
        {
          "code": [
            "IM"
          ],
          "name": [
            "Index Medicus"
          ]
        }
      ]
    }
  ],
  "fullTextUrlList": [
    {
      "fullTextUrl": [
        {
          "availability": [
            "Open access"
          ],
          "availabilityCode": [
            "OA"
          ],
          "documentStyle": [
            "pdf"
          ],
          "site": [
            "Europe_PMC"
          ],
          "url": [
            "http://europepmc.org/articles/PMC4550055?pdf=render"
          ]
        },
        {
          "availability": [
            "Open access"
          ],
          "availabilityCode": [
            "OA"
          ],
          "documentStyle": [
            "html"
          ],
          "site": [
            "Europe_PMC"
          ],
          "url": [
            "http://europepmc.org/articles/PMC4550055"
          ]
        },
        {
          "availability": [
            "Subscription required"
          ],
          "availabilityCode": [
            "S"
          ],
          "documentStyle": [
            "doi"
          ],
          "site": [
            "DOI"
          ],
          "url": [
            "http://dx.doi.org/10.1186/s12862-015-0456-4"
          ]
        }
      ]
    }
  ],
  "isOpenAccess": [
    "Y"
  ],
  "inEPMC": [
    "Y"
  ],
  "inPMC": [
    "N"
  ],
  "hasPDF": [
    "Y"
  ],
  "hasBook": [
    "N"
  ],
  "hasSuppl": [
    "N"
  ],
  "citedByCount": [
    "0"
  ],
  "hasReferences": [
    "Y"
  ],
  "hasTextMinedTerms": [
    "Y"
  ],
  "hasDbCrossReferences": [
    "N"
  ],
  "hasLabsLinks": [
    "Y"
  ],
  "license": [
    "cc by"
  ],
  "epmcAuthMan": [
    "N"
  ],
  "hasTMAccessionNumbers": [
    "N"
  ],
  "dateOfCompletion": [
    "2015-12-14"
  ],
  "dateOfCreation": [
    "2015-08-26"
  ],
  "dateOfRevision": [
    "2015-08-29"
  ],
  "electronicPublicationDate": [
    "2015-08-26"
  ],
  "firstPublicationDate": [
    "2015-08-26"
  ],
  "luceneScore": [
    "NaN"
  ]
}