{
  "id": [
    "19440414"
  ],
  "source": [
    "MED"
  ],
  "pmid": [
    "19440414"
  ],
  "pmcid": [
    "PMC2672348"
  ],
  "doi": [
    "10.3390/ijerph6020759"
  ],
  "title": [
    "Valuing climate change impacts on human health: empirical evidence from the literature."
  ],
  "authorString": [
    "Markandya A, Chiabai A."
  ],
  "authorList": [
    {
      "author": [
        {
          "fullName": [
            "Markandya A"
          ],
          "firstName": [
            "Anil"
          ],
          "lastName": [
            "Markandya"
          ],
          "initials": [
            "A"
          ]
        },
        {
          "fullName": [
            "Chiabai A"
          ],
          "firstName": [
            "Aline"
          ],
          "lastName": [
            "Chiabai"
          ],
          "initials": [
            "A"
          ]
        }
      ]
    }
  ],
  "journalInfo": [
    {
      "issue": [
        "2"
      ],
      "volume": [
        "6"
      ],
      "journalIssueId": [
        "1622702"
      ],
      "dateOfPublication": [
        "2009 Feb"
      ],
      "monthOfPublication": [
        "2"
      ],
      "yearOfPublication": [
        "2009"
      ],
      "printPublicationDate": [
        "2009-02-01"
      ],
      "journal": [
        {
          "title": [
            "International journal of environmental research and public health"
          ],
          "ISOAbbreviation": [
            "Int J Environ Res Public Health"
          ],
          "medlineAbbreviation": [
            "Int J Environ Res Public Health"
          ],
          "NLMid": [
            "101238455"
          ],
          "ISSN": [
            "1661-7827"
          ],
          "ESSN": [
            "1660-4601"
          ]
        }
      ]
    }
  ],
  "pageInfo": [
    "759-786"
  ],
  "abstractText": [
    "There is a broad consensus that climate change will increase the costs arising from diseases such as malaria and diarrhea and, furthermore, that the largest increases will be in developing countries. One of the problems is the lack of studies measuring these costs systematically and in detail. This paper critically reviews a number of studies about the costs of planned adaptation in the health context, and compares current health expenditures with MDGs which are felt to be inadequate when considering climate change impacts. The analysis serves also as a critical investigation of the methodologies used and aims at identifying research weaknesses and gaps."
  ],
  "affiliation": [
    "Basque Centre for Climate Change BC3, Gran Via 35-2, 48005 Bilbao, Spain. anil.markandya@bc3research.org"
  ],
  "language": [
    "eng"
  ],
  "pubModel": [
    "Print-Electronic"
  ],
  "pubTypeList": [
    {
      "pubType": [
        "Journal Article",
        "Review"
      ]
    }
  ],
  "meshHeadingList": [
    {
      "meshHeading": [
        {
          "majorTopic_YN": [
            "N"
          ],
          "descriptorName": [
            "Humans"
          ]
        },
        {
          "majorTopic_YN": [
            "Y"
          ],
          "descriptorName": [
            "Climate"
          ]
        },
        {
          "majorTopic_YN": [
            "Y"
          ],
          "descriptorName": [
            "Health Status"
          ]
        },
        {
          "majorTopic_YN": [
            "N"
          ],
          "descriptorName": [
            "Empirical Research"
          ]
        },
        {
          "majorTopic_YN": [
            "N"
          ],
          "descriptorName": [
            "Cost-Benefit Analysis"
          ]
        }
      ]
    }
  ],
  "keywordList": [
    {
      "keyword": [
        "Climate change",
        "Adaptation",
        "Cost-effectiveness",
        "Cost-benefit Analysis",
        "Health Impacts"
      ]
    }
  ],
  "subsetList": [
    {
      "subset": [
        {
          "code": [
            "IM"
          ],
          "name": [
            "Index Medicus"
          ]
        }
      ]
    }
  ],
  "fullTextUrlList": [
    {
      "fullTextUrl": [
        {
          "availability": [
            "Open access"
          ],
          "availabilityCode": [
            "OA"
          ],
          "documentStyle": [
            "pdf"
          ],
          "site": [
            "Europe_PMC"
          ],
          "url": [
            "http://europepmc.org/articles/PMC2672348?pdf=render"
          ]
        },
        {
          "availability": [
            "Open access"
          ],
          "availabilityCode": [
            "OA"
          ],
          "documentStyle": [
            "html"
          ],
          "site": [
            "Europe_PMC"
          ],
          "url": [
            "http://europepmc.org/articles/PMC2672348"
          ]
        },
        {
          "availability": [
            "Free"
          ],
          "availabilityCode": [
            "F"
          ],
          "documentStyle": [
            "pdf"
          ],
          "site": [
            "PubMedCentral"
          ],
          "url": [
            "http://www.pubmedcentral.nih.gov/picrender.fcgi?tool=EBI&pubmedid=19440414&action=stream&blobtype=pdf"
          ]
        },
        {
          "availability": [
            "Free"
          ],
          "availabilityCode": [
            "F"
          ],
          "documentStyle": [
            "html"
          ],
          "site": [
            "PubMedCentral"
          ],
          "url": [
            "http://www.pubmedcentral.nih.gov/articlerender.fcgi?tool=EBI&pubmedid=19440414"
          ]
        },
        {
          "availability": [
            "Subscription required"
          ],
          "availabilityCode": [
            "S"
          ],
          "documentStyle": [
            "doi"
          ],
          "site": [
            "DOI"
          ],
          "url": [
            "http://dx.doi.org/10.3390/ijerph6020759"
          ]
        }
      ]
    }
  ],
  "isOpenAccess": [
    "Y"
  ],
  "inEPMC": [
    "Y"
  ],
  "inPMC": [
    "Y"
  ],
  "hasPDF": [
    "Y"
  ],
  "hasBook": [
    "N"
  ],
  "hasSuppl": [
    "N"
  ],
  "citedByCount": [
    "9"
  ],
  "hasReferences": [
    "Y"
  ],
  "hasTextMinedTerms": [
    "Y"
  ],
  "hasDbCrossReferences": [
    "N"
  ],
  "hasLabsLinks": [
    "N"
  ],
  "license": [
    "cc by"
  ],
  "epmcAuthMan": [
    "N"
  ],
  "hasTMAccessionNumbers": [
    "N"
  ],
  "dateOfCompletion": [
    "2009-08-05"
  ],
  "dateOfCreation": [
    "2009-05-14"
  ],
  "dateOfRevision": [
    "2013-06-02"
  ],
  "electronicPublicationDate": [
    "2009-02-23"
  ],
  "firstPublicationDate": [
    "2009-02-23"
  ],
  "luceneScore": [
    "NaN"
  ]
}