{
  "id": [
    "21501433"
  ],
  "source": [
    "MED"
  ],
  "pmid": [
    "21501433"
  ],
  "pmcid": [
    "PMC3231889"
  ],
  "doi": [
    "10.1186/1471-2458-11-s3-s16"
  ],
  "title": [
    "Rotavirus vaccine and diarrhea mortality: quantifying regional variation in effect size."
  ],
  "authorString": [
    "Fischer Walker CL, Black RE."
  ],
  "authorList": [
    {
      "author": [
        {
          "fullName": [
            "Fischer Walker CL"
          ],
          "firstName": [
            "Christa L"
          ],
          "lastName": [
            "Fischer Walker"
          ],
          "initials": [
            "CL"
          ]
        },
        {
          "fullName": [
            "Black RE"
          ],
          "firstName": [
            "Robert E"
          ],
          "lastName": [
            "Black"
          ],
          "initials": [
            "RE"
          ],
          "authorId": [
            {
              "_": "0000-0001-9926-7984",
              "$": {
                "type": "ORCID"
              }
            }
          ]
        }
      ]
    }
  ],
  "authorIdList": [
    {
      "authorId": [
        {
          "_": "0000-0001-9926-7984",
          "$": {
            "type": "ORCID"
          }
        }
      ]
    }
  ],
  "journalInfo": [
    {
      "volume": [
        "11 Suppl 3"
      ],
      "journalIssueId": [
        "1827073"
      ],
      "dateOfPublication": [
        "2011 "
      ],
      "monthOfPublication": [
        "0"
      ],
      "yearOfPublication": [
        "2011"
      ],
      "printPublicationDate": [
        "2011-01-01"
      ],
      "journal": [
        {
          "title": [
            "BMC public health"
          ],
          "ISOAbbreviation": [
            "BMC Public Health"
          ],
          "medlineAbbreviation": [
            "BMC Public Health"
          ],
          "NLMid": [
            "100968562"
          ],
          "ESSN": [
            "1471-2458"
          ]
        }
      ]
    }
  ],
  "pageInfo": [
    "S16"
  ],
  "abstractText": [
    " BACKGROUND: Diarrhea mortality remains a leading cause of child death and rotavirus vaccine an effective tool for preventing severe rotavirus diarrhea. New data suggest vaccine efficacy may vary by region. METHODS: We reviewed published vaccine efficacy trials to estimate a regional-specific effect of vaccine efficacy on severe rotavirus diarrhea and hospitalizations. We assessed the quality of evidence using a standard protocol and conducted meta-analyses where more than 1 data point was available. RESULTS: Rotavirus vaccine prevented severe rotavirus episodes in all regions; 81% of episodes in Latin America, 42.7% of episodes in high-mortality Asia, 50% of episodes in sub-Saharan Africa, 88% of episodes low-mortality Asia and North Africa, and 91% of episodes in developed countries. The effect sizes observed for preventing severe rotavirus diarrhea will be used in LiST as the effect size for rotavirus vaccine on rotavirus-specific diarrhea mortality. CONCLUSIONS: Vaccine trials have not measured the effect of vaccine on diarrhea mortality. The overall quality of the evidence and consistency observed across studies suggests that estimating mortality based on a severe morbidity reduction is highly plausible."
  ],
  "affiliation": [
    "Department of International Health, Johns Hopkins Bloomberg School of Public Health, Baltimore, MD 21205, USA. cfischer@jhsph.edu"
  ],
  "language": [
    "eng"
  ],
  "pubModel": [
    "Electronic"
  ],
  "pubTypeList": [
    {
      "pubType": [
        "Journal Article",
        "Meta-Analysis",
        "Review",
        "Research Support, Non-U.S. Gov't"
      ]
    }
  ],
  "meshHeadingList": [
    {
      "meshHeading": [
        {
          "majorTopic_YN": [
            "N"
          ],
          "descriptorName": [
            "Humans"
          ]
        },
        {
          "majorTopic_YN": [
            "N"
          ],
          "descriptorName": [
            "Rotavirus"
          ],
          "meshQualifierList": [
            {
              "meshQualifier": [
                {
                  "abbreviation": [
                    "IM"
                  ],
                  "qualifierName": [
                    "immunology"
                  ],
                  "majorTopic_YN": [
                    "Y"
                  ]
                }
              ]
            }
          ]
        },
        {
          "majorTopic_YN": [
            "N"
          ],
          "descriptorName": [
            "Rotavirus Infections"
          ],
          "meshQualifierList": [
            {
              "meshQualifier": [
                {
                  "abbreviation": [
                    "PC"
                  ],
                  "qualifierName": [
                    "prevention & control"
                  ],
                  "majorTopic_YN": [
                    "Y"
                  ]
                }
              ]
            }
          ]
        },
        {
          "majorTopic_YN": [
            "N"
          ],
          "descriptorName": [
            "Diarrhea"
          ],
          "meshQualifierList": [
            {
              "meshQualifier": [
                {
                  "abbreviation": [
                    "MO"
                  ],
                  "qualifierName": [
                    "mortality"
                  ],
                  "majorTopic_YN": [
                    "Y"
                  ]
                },
                {
                  "abbreviation": [
                    "PC"
                  ],
                  "qualifierName": [
                    "prevention & control"
                  ],
                  "majorTopic_YN": [
                    "N"
                  ]
                },
                {
                  "abbreviation": [
                    "VI"
                  ],
                  "qualifierName": [
                    "virology"
                  ],
                  "majorTopic_YN": [
                    "N"
                  ]
                }
              ]
            }
          ]
        },
        {
          "majorTopic_YN": [
            "N"
          ],
          "descriptorName": [
            "Rotavirus Vaccines"
          ],
          "meshQualifierList": [
            {
              "meshQualifier": [
                {
                  "abbreviation": [
                    "AD"
                  ],
                  "qualifierName": [
                    "administration & dosage"
                  ],
                  "majorTopic_YN": [
                    "Y"
                  ]
                }
              ]
            }
          ]
        },
        {
          "majorTopic_YN": [
            "N"
          ],
          "descriptorName": [
            "Severity of Illness Index"
          ]
        },
        {
          "majorTopic_YN": [
            "N"
          ],
          "descriptorName": [
            "Developed Countries"
          ]
        },
        {
          "majorTopic_YN": [
            "N"
          ],
          "descriptorName": [
            "Child"
          ]
        },
        {
          "majorTopic_YN": [
            "N"
          ],
          "descriptorName": [
            "Africa, Northern"
          ],
          "meshQualifierList": [
            {
              "meshQualifier": [
                {
                  "abbreviation": [
                    "EP"
                  ],
                  "qualifierName": [
                    "epidemiology"
                  ],
                  "majorTopic_YN": [
                    "N"
                  ]
                }
              ]
            }
          ]
        },
        {
          "majorTopic_YN": [
            "N"
          ],
          "descriptorName": [
            "Africa South of the Sahara"
          ],
          "meshQualifierList": [
            {
              "meshQualifier": [
                {
                  "abbreviation": [
                    "EP"
                  ],
                  "qualifierName": [
                    "epidemiology"
                  ],
                  "majorTopic_YN": [
                    "N"
                  ]
                }
              ]
            }
          ]
        },
        {
          "majorTopic_YN": [
            "N"
          ],
          "descriptorName": [
            "Latin America"
          ],
          "meshQualifierList": [
            {
              "meshQualifier": [
                {
                  "abbreviation": [
                    "EP"
                  ],
                  "qualifierName": [
                    "epidemiology"
                  ],
                  "majorTopic_YN": [
                    "N"
                  ]
                }
              ]
            }
          ]
        },
        {
          "majorTopic_YN": [
            "N"
          ],
          "descriptorName": [
            "Asia"
          ],
          "meshQualifierList": [
            {
              "meshQualifier": [
                {
                  "abbreviation": [
                    "EP"
                  ],
                  "qualifierName": [
                    "epidemiology"
                  ],
                  "majorTopic_YN": [
                    "N"
                  ]
                }
              ]
            }
          ]
        }
      ]
    }
  ],
  "chemicalList": [
    {
      "chemical": [
        {
          "name": [
            "Rotavirus Vaccines"
          ],
          "registryNumber": [
            "0"
          ]
        }
      ]
    }
  ],
  "subsetList": [
    {
      "subset": [
        {
          "code": [
            "IM"
          ],
          "name": [
            "Index Medicus"
          ]
        }
      ]
    }
  ],
  "fullTextUrlList": [
    {
      "fullTextUrl": [
        {
          "availability": [
            "Open access"
          ],
          "availabilityCode": [
            "OA"
          ],
          "documentStyle": [
            "pdf"
          ],
          "site": [
            "Europe_PMC"
          ],
          "url": [
            "http://europepmc.org/articles/PMC3231889?pdf=render"
          ]
        },
        {
          "availability": [
            "Open access"
          ],
          "availabilityCode": [
            "OA"
          ],
          "documentStyle": [
            "html"
          ],
          "site": [
            "Europe_PMC"
          ],
          "url": [
            "http://europepmc.org/articles/PMC3231889"
          ]
        },
        {
          "availability": [
            "Free"
          ],
          "availabilityCode": [
            "F"
          ],
          "documentStyle": [
            "pdf"
          ],
          "site": [
            "PubMedCentral"
          ],
          "url": [
            "http://www.pubmedcentral.nih.gov/picrender.fcgi?tool=EBI&pubmedid=21501433&action=stream&blobtype=pdf"
          ]
        },
        {
          "availability": [
            "Free"
          ],
          "availabilityCode": [
            "F"
          ],
          "documentStyle": [
            "html"
          ],
          "site": [
            "PubMedCentral"
          ],
          "url": [
            "http://www.pubmedcentral.nih.gov/articlerender.fcgi?tool=EBI&pubmedid=21501433"
          ]
        },
        {
          "availability": [
            "Subscription required"
          ],
          "availabilityCode": [
            "S"
          ],
          "documentStyle": [
            "doi"
          ],
          "site": [
            "DOI"
          ],
          "url": [
            "http://dx.doi.org/10.1186/1471-2458-11-S3-S16"
          ]
        }
      ]
    }
  ],
  "isOpenAccess": [
    "Y"
  ],
  "inEPMC": [
    "Y"
  ],
  "inPMC": [
    "Y"
  ],
  "hasPDF": [
    "Y"
  ],
  "hasBook": [
    "N"
  ],
  "hasSuppl": [
    "Y"
  ],
  "citedByCount": [
    "10"
  ],
  "hasReferences": [
    "Y"
  ],
  "hasTextMinedTerms": [
    "Y"
  ],
  "hasDbCrossReferences": [
    "N"
  ],
  "hasLabsLinks": [
    "Y"
  ],
  "license": [
    "cc by"
  ],
  "epmcAuthMan": [
    "N"
  ],
  "hasTMAccessionNumbers": [
    "N"
  ],
  "dateOfCompletion": [
    "2011-06-24"
  ],
  "dateOfCreation": [
    "2011-04-19"
  ],
  "dateOfRevision": [
    "2013-06-30"
  ],
  "electronicPublicationDate": [
    "2011-04-13"
  ],
  "firstPublicationDate": [
    "2011-04-13"
  ],
  "luceneScore": [
    "NaN"
  ]
}