{
  "id": [
    "24690667"
  ],
  "source": [
    "MED"
  ],
  "pmid": [
    "24690667"
  ],
  "pmcid": [
    "PMC4197907"
  ],
  "doi": [
    "10.1093/infdis/jit232"
  ],
  "title": [
    "The impact of polio eradication on routine immunization and primary health care: a mixed-methods study."
  ],
  "authorString": [
    "Closser S, Cox K, Parris TM, Landis RM, Justice J, Gopinath R, Maes K, Banteyerga Amaha H, Mohammed IZ, Dukku AM, Omidian PA, Varley E, Tedoff P, Koon AD, Nyirazinyoye L, Luck MA, Pont WF, Neergheen V, Rosenthal A, Nsubuga P, Thacker N, Jooma R, Nuttall E."
  ],
  "authorList": [
    {
      "author": [
        {
          "fullName": [
            "Closser S"
          ],
          "firstName": [
            "Svea"
          ],
          "lastName": [
            "Closser"
          ],
          "initials": [
            "S"
          ],
          "affiliation": [
            "Department of Sociology and Anthropology, Middlebury College, Middlebury."
          ]
        },
        {
          "fullName": [
            "Cox K"
          ],
          "firstName": [
            "Kelly"
          ],
          "lastName": [
            "Cox"
          ],
          "initials": [
            "K"
          ],
          "affiliation": [
            "Department of Sociology and Anthropology, Middlebury College, Middlebury."
          ]
        },
        {
          "fullName": [
            "Parris TM"
          ],
          "firstName": [
            "Thomas M"
          ],
          "lastName": [
            "Parris"
          ],
          "initials": [
            "TM"
          ],
          "affiliation": [
            "ISciences, Burlington, Vermont."
          ]
        },
        {
          "fullName": [
            "Landis RM"
          ],
          "firstName": [
            "R Matthew"
          ],
          "lastName": [
            "Landis"
          ],
          "initials": [
            "RM"
          ],
          "affiliation": [
            "ISciences, Burlington, Vermont."
          ]
        },
        {
          "fullName": [
            "Justice J"
          ],
          "firstName": [
            "Judith"
          ],
          "lastName": [
            "Justice"
          ],
          "initials": [
            "J"
          ],
          "affiliation": [
            "Philip R. Lee Institute for Health Policy Studies, University of California at San Francisco."
          ]
        },
        {
          "fullName": [
            "Gopinath R"
          ],
          "firstName": [
            "Ranjani"
          ],
          "lastName": [
            "Gopinath"
          ],
          "initials": [
            "R"
          ],
          "affiliation": [
            "Freelance Consultant, Secunderabad."
          ]
        },
        {
          "fullName": [
            "Maes K"
          ],
          "firstName": [
            "Kenneth"
          ],
          "lastName": [
            "Maes"
          ],
          "initials": [
            "K"
          ],
          "affiliation": [
            "Department of Anthropology, Oregon State University."
          ]
        },
        {
          "fullName": [
            "Banteyerga Amaha H"
          ],
          "firstName": [
            "Hailom"
          ],
          "lastName": [
            "Banteyerga Amaha"
          ],
          "initials": [
            "H"
          ],
          "affiliation": [
            "Addis Ababa University, Ethiopia."
          ]
        },
        {
          "fullName": [
            "Mohammed IZ"
          ],
          "firstName": [
            "Ismaila Zango"
          ],
          "lastName": [
            "Mohammed"
          ],
          "initials": [
            "IZ"
          ],
          "affiliation": [
            "Department of Sociology, Bayero University, Kano, Nigeria."
          ]
        },
        {
          "fullName": [
            "Dukku AM"
          ],
          "firstName": [
            "Aminu Mohammed"
          ],
          "lastName": [
            "Dukku"
          ],
          "initials": [
            "AM"
          ],
          "affiliation": [
            "Department of Sociology, Bayero University, Kano, Nigeria."
          ]
        },
        {
          "fullName": [
            "Omidian PA"
          ],
          "firstName": [
            "Patricia A"
          ],
          "lastName": [
            "Omidian"
          ],
          "initials": [
            "PA"
          ],
          "affiliation": [
            "Independent Consultant, Corvallis, Oregon."
          ]
        },
        {
          "fullName": [
            "Varley E"
          ],
          "firstName": [
            "Emma"
          ],
          "lastName": [
            "Varley"
          ],
          "initials": [
            "E"
          ],
          "affiliation": [
            "MNCH-RH Department, Health Services Academy, Islamabad."
          ]
        },
        {
          "fullName": [
            "Tedoff P"
          ],
          "firstName": [
            "Pauley"
          ],
          "lastName": [
            "Tedoff"
          ],
          "initials": [
            "P"
          ],
          "affiliation": [
            "Department of Sociology and Anthropology, Middlebury College, Middlebury."
          ]
        },
        {
          "fullName": [
            "Koon AD"
          ],
          "firstName": [
            "Adam D"
          ],
          "lastName": [
            "Koon"
          ],
          "initials": [
            "AD"
          ],
          "affiliation": [
            "Global Health and Development, London School of Hygiene and Tropical Medicine, United Kingdom."
          ]
        },
        {
          "fullName": [
            "Nyirazinyoye L"
          ],
          "firstName": [
            "Laetitia"
          ],
          "lastName": [
            "Nyirazinyoye"
          ],
          "initials": [
            "L"
          ],
          "affiliation": [
            "National University of Rwanda School of Public Health, Kigali, Rwanda."
          ]
        },
        {
          "fullName": [
            "Luck MA"
          ],
          "firstName": [
            "Matthew A"
          ],
          "lastName": [
            "Luck"
          ],
          "initials": [
            "MA"
          ],
          "affiliation": [
            "ISciences, Burlington, Vermont."
          ]
        },
        {
          "fullName": [
            "Pont WF"
          ],
          "firstName": [
            "W Frank"
          ],
          "lastName": [
            "Pont"
          ],
          "initials": [
            "WF"
          ],
          "affiliation": [
            "ISciences, Burlington, Vermont."
          ]
        },
        {
          "fullName": [
            "Neergheen V"
          ],
          "firstName": [
            "Vanessa"
          ],
          "lastName": [
            "Neergheen"
          ],
          "initials": [
            "V"
          ],
          "affiliation": [
            "Department of Sociology and Anthropology, Middlebury College, Middlebury."
          ]
        },
        {
          "fullName": [
            "Rosenthal A"
          ],
          "firstName": [
            "Anat"
          ],
          "lastName": [
            "Rosenthal"
          ],
          "initials": [
            "A"
          ],
          "affiliation": [
            "Department of Biomedical Ethics, McGill University, Montreal, Canada."
          ]
        },
        {
          "fullName": [
            "Nsubuga P"
          ],
          "firstName": [
            "Peter"
          ],
          "lastName": [
            "Nsubuga"
          ],
          "initials": [
            "P"
          ],
          "affiliation": [
            "Global Public Health Solutions, Decatur, Georgia."
          ]
        },
        {
          "fullName": [
            "Thacker N"
          ],
          "firstName": [
            "Naveen"
          ],
          "lastName": [
            "Thacker"
          ],
          "initials": [
            "N"
          ],
          "affiliation": [
            "Deep Children Hospital and Research Centre, Gandhidham, India."
          ]
        },
        {
          "fullName": [
            "Jooma R"
          ],
          "firstName": [
            "Rashid"
          ],
          "lastName": [
            "Jooma"
          ],
          "initials": [
            "R"
          ],
          "affiliation": [
            "Department of Surgery, Aga Khan University, Karachi, Pakistan."
          ]
        },
        {
          "fullName": [
            "Nuttall E"
          ],
          "firstName": [
            "Elizabeth"
          ],
          "lastName": [
            "Nuttall"
          ],
          "initials": [
            "E"
          ],
          "affiliation": [
            "Department of Sociology and Anthropology, Middlebury College, Middlebury."
          ]
        }
      ]
    }
  ],
  "journalInfo": [
    {
      "volume": [
        "210 Suppl 1"
      ],
      "journalIssueId": [
        "2211851"
      ],
      "dateOfPublication": [
        "2014 Nov"
      ],
      "monthOfPublication": [
        "11"
      ],
      "yearOfPublication": [
        "2014"
      ],
      "printPublicationDate": [
        "2014-11-01"
      ],
      "journal": [
        {
          "title": [
            "The Journal of infectious diseases"
          ],
          "ISOAbbreviation": [
            "J. Infect. Dis."
          ],
          "medlineAbbreviation": [
            "J Infect Dis"
          ],
          "NLMid": [
            "0413675"
          ],
          "ISSN": [
            "0022-1899"
          ],
          "ESSN": [
            "1537-6613"
          ]
        }
      ]
    }
  ],
  "pageInfo": [
    "S504-13"
  ],
  "abstractText": [
    "BACKGROUND: After 2 decades of focused efforts to eradicate polio, the impact of eradication activities on health systems continues to be controversial. This study evaluated the impact of polio eradication activities on routine immunization (RI) and primary healthcare (PHC). METHODS: Quantitative analysis assessed the effects of polio eradication campaigns on RI and maternal healthcare coverage. A systematic qualitative analysis in 7 countries in South Asia and sub-Saharan Africa assessed impacts of polio eradication activities on key health system functions, using data from interviews, participant observation, and document review. RESULTS: Our quantitative analysis did not find compelling evidence of widespread and significant effects of polio eradication campaigns, either positive or negative, on measures of RI and maternal healthcare. Our qualitative analysis revealed context-specific positive impacts of polio eradication activities in many of our case studies, particularly disease surveillance and cold chain strengthening. These impacts were dependent on the initiative of policy makers. Negative impacts, including service interruption and public dissatisfaction, were observed primarily in districts with many campaigns per year. CONCLUSIONS: Polio eradication activities can provide support for RI and PHC, but many opportunities to do so remain missed. Increased commitment to scaling up best practices could lead to significant positive impacts."
  ],
  "affiliation": [
    "Department of Sociology and Anthropology, Middlebury College, Middlebury."
  ],
  "language": [
    "eng"
  ],
  "pubModel": [
    "Print-Electronic"
  ],
  "pubTypeList": [
    {
      "pubType": [
        "Journal Article",
        "Research Support, Non-U.S. Gov't"
      ]
    }
  ],
  "meshHeadingList": [
    {
      "meshHeading": [
        {
          "majorTopic_YN": [
            "N"
          ],
          "descriptorName": [
            "Humans"
          ]
        },
        {
          "majorTopic_YN": [
            "N"
          ],
          "descriptorName": [
            "Poliomyelitis"
          ],
          "meshQualifierList": [
            {
              "meshQualifier": [
                {
                  "abbreviation": [
                    "PC"
                  ],
                  "qualifierName": [
                    "prevention & control"
                  ],
                  "majorTopic_YN": [
                    "Y"
                  ]
                }
              ]
            }
          ]
        },
        {
          "majorTopic_YN": [
            "N"
          ],
          "descriptorName": [
            "Poliovirus Vaccines"
          ],
          "meshQualifierList": [
            {
              "meshQualifier": [
                {
                  "abbreviation": [
                    "AD"
                  ],
                  "qualifierName": [
                    "administration & dosage"
                  ],
                  "majorTopic_YN": [
                    "Y"
                  ]
                }
              ]
            }
          ]
        },
        {
          "majorTopic_YN": [
            "N"
          ],
          "descriptorName": [
            "Immunization"
          ],
          "meshQualifierList": [
            {
              "meshQualifier": [
                {
                  "abbreviation": [
                    "MT"
                  ],
                  "qualifierName": [
                    "methods"
                  ],
                  "majorTopic_YN": [
                    "Y"
                  ]
                },
                {
                  "abbreviation": [
                    "UT"
                  ],
                  "qualifierName": [
                    "utilization"
                  ],
                  "majorTopic_YN": [
                    "Y"
                  ]
                }
              ]
            }
          ]
        },
        {
          "majorTopic_YN": [
            "N"
          ],
          "descriptorName": [
            "Primary Health Care"
          ],
          "meshQualifierList": [
            {
              "meshQualifier": [
                {
                  "abbreviation": [
                    "UT"
                  ],
                  "qualifierName": [
                    "utilization"
                  ],
                  "majorTopic_YN": [
                    "Y"
                  ]
                }
              ]
            }
          ]
        },
        {
          "majorTopic_YN": [
            "N"
          ],
          "descriptorName": [
            "Africa South of the Sahara"
          ]
        },
        {
          "majorTopic_YN": [
            "N"
          ],
          "descriptorName": [
            "Asia, Southeastern"
          ]
        },
        {
          "majorTopic_YN": [
            "N"
          ],
          "descriptorName": [
            "Disease Eradication"
          ],
          "meshQualifierList": [
            {
              "meshQualifier": [
                {
                  "abbreviation": [
                    "MT"
                  ],
                  "qualifierName": [
                    "methods"
                  ],
                  "majorTopic_YN": [
                    "Y"
                  ]
                }
              ]
            }
          ]
        }
      ]
    }
  ],
  "keywordList": [
    {
      "keyword": [
        "eradication",
        "Poliomyelitis",
        "Health Systems",
        "Routine Immunization"
      ]
    }
  ],
  "chemicalList": [
    {
      "chemical": [
        {
          "name": [
            "Poliovirus Vaccines"
          ],
          "registryNumber": [
            "0"
          ]
        }
      ]
    }
  ],
  "subsetList": [
    {
      "subset": [
        {
          "code": [
            "AIM"
          ],
          "name": [
            "Core clinical journals"
          ]
        },
        {
          "code": [
            "IM"
          ],
          "name": [
            "Index Medicus"
          ]
        }
      ]
    }
  ],
  "fullTextUrlList": [
    {
      "fullTextUrl": [
        {
          "availability": [
            "Open access"
          ],
          "availabilityCode": [
            "OA"
          ],
          "documentStyle": [
            "pdf"
          ],
          "site": [
            "Europe_PMC"
          ],
          "url": [
            "http://europepmc.org/articles/PMC4197907?pdf=render"
          ]
        },
        {
          "availability": [
            "Open access"
          ],
          "availabilityCode": [
            "OA"
          ],
          "documentStyle": [
            "html"
          ],
          "site": [
            "Europe_PMC"
          ],
          "url": [
            "http://europepmc.org/articles/PMC4197907"
          ]
        },
        {
          "availability": [
            "Subscription required"
          ],
          "availabilityCode": [
            "S"
          ],
          "documentStyle": [
            "doi"
          ],
          "site": [
            "DOI"
          ],
          "url": [
            "http://dx.doi.org/10.1093/infdis/jit232"
          ]
        }
      ]
    }
  ],
  "isOpenAccess": [
    "Y"
  ],
  "inEPMC": [
    "Y"
  ],
  "inPMC": [
    "N"
  ],
  "hasPDF": [
    "Y"
  ],
  "hasBook": [
    "N"
  ],
  "hasSuppl": [
    "Y"
  ],
  "citedByCount": [
    "3"
  ],
  "hasReferences": [
    "Y"
  ],
  "hasTextMinedTerms": [
    "Y"
  ],
  "hasDbCrossReferences": [
    "N"
  ],
  "hasLabsLinks": [
    "Y"
  ],
  "license": [
    "cc by-nc-nd"
  ],
  "epmcAuthMan": [
    "N"
  ],
  "hasTMAccessionNumbers": [
    "N"
  ],
  "dateOfCompletion": [
    "2014-12-17"
  ],
  "dateOfCreation": [
    "2014-10-15"
  ],
  "electronicPublicationDate": [
    "2014-04-01"
  ],
  "firstPublicationDate": [
    "2014-04-01"
  ],
  "luceneScore": [
    "NaN"
  ]
}