{
  "id": [
    "23785281"
  ],
  "source": [
    "MED"
  ],
  "pmid": [
    "23785281"
  ],
  "pmcid": [
    "PMC3681748"
  ],
  "doi": [
    "10.1371/journal.ppat.1003403"
  ],
  "title": [
    "The Escherichia coli phosphotyrosine proteome relates to core pathways and virulence."
  ],
  "authorString": [
    "Hansen AM, Chaerkady R, Sharma J, Díaz-Mejía JJ, Tyagi N, Renuse S, Jacob HK, Pinto SM, Sahasrabuddhe NA, Kim MS, Delanghe B, Srinivasan N, Emili A, Kaper JB, Pandey A."
  ],
  "authorList": [
    {
      "author": [
        {
          "fullName": [
            "Hansen AM"
          ],
          "firstName": [
            "Anne-Marie"
          ],
          "lastName": [
            "Hansen"
          ],
          "initials": [
            "AM"
          ],
          "affiliation": [
            "Department of Microbiology and Immunology, University of Maryland School of Medicine, Baltimore, Maryland, United States of America."
          ]
        },
        {
          "fullName": [
            "Chaerkady R"
          ],
          "firstName": [
            "Raghothama"
          ],
          "lastName": [
            "Chaerkady"
          ],
          "initials": [
            "R"
          ]
        },
        {
          "fullName": [
            "Sharma J"
          ],
          "firstName": [
            "Jyoti"
          ],
          "lastName": [
            "Sharma"
          ],
          "initials": [
            "J"
          ]
        },
        {
          "fullName": [
            "Díaz-Mejía JJ"
          ],
          "firstName": [
            "J Javier"
          ],
          "lastName": [
            "Díaz-Mejía"
          ],
          "initials": [
            "JJ"
          ]
        },
        {
          "fullName": [
            "Tyagi N"
          ],
          "firstName": [
            "Nidhi"
          ],
          "lastName": [
            "Tyagi"
          ],
          "initials": [
            "N"
          ],
          "authorId": [
            {
              "_": "0000-0002-2065-9051",
              "$": {
                "type": "ORCID"
              }
            }
          ]
        },
        {
          "fullName": [
            "Renuse S"
          ],
          "firstName": [
            "Santosh"
          ],
          "lastName": [
            "Renuse"
          ],
          "initials": [
            "S"
          ]
        },
        {
          "fullName": [
            "Jacob HK"
          ],
          "firstName": [
            "Harrys K C"
          ],
          "lastName": [
            "Jacob"
          ],
          "initials": [
            "HK"
          ]
        },
        {
          "fullName": [
            "Pinto SM"
          ],
          "firstName": [
            "Sneha M"
          ],
          "lastName": [
            "Pinto"
          ],
          "initials": [
            "SM"
          ]
        },
        {
          "fullName": [
            "Sahasrabuddhe NA"
          ],
          "firstName": [
            "Nandini A"
          ],
          "lastName": [
            "Sahasrabuddhe"
          ],
          "initials": [
            "NA"
          ]
        },
        {
          "fullName": [
            "Kim MS"
          ],
          "firstName": [
            "Min-Sik"
          ],
          "lastName": [
            "Kim"
          ],
          "initials": [
            "MS"
          ]
        },
        {
          "fullName": [
            "Delanghe B"
          ],
          "firstName": [
            "Bernard"
          ],
          "lastName": [
            "Delanghe"
          ],
          "initials": [
            "B"
          ]
        },
        {
          "fullName": [
            "Srinivasan N"
          ],
          "firstName": [
            "Narayanaswamy"
          ],
          "lastName": [
            "Srinivasan"
          ],
          "initials": [
            "N"
          ]
        },
        {
          "fullName": [
            "Emili A"
          ],
          "firstName": [
            "Andrew"
          ],
          "lastName": [
            "Emili"
          ],
          "initials": [
            "A"
          ]
        },
        {
          "fullName": [
            "Kaper JB"
          ],
          "firstName": [
            "James B"
          ],
          "lastName": [
            "Kaper"
          ],
          "initials": [
            "JB"
          ]
        },
        {
          "fullName": [
            "Pandey A"
          ],
          "firstName": [
            "Akhilesh"
          ],
          "lastName": [
            "Pandey"
          ],
          "initials": [
            "A"
          ]
        }
      ]
    }
  ],
  "authorIdList": [
    {
      "authorId": [
        {
          "_": "0000-0002-2065-9051",
          "$": {
            "type": "ORCID"
          }
        },
        {
          "_": "0000-0003-3030-2539",
          "$": {
            "type": "ORCID"
          }
        }
      ]
    }
  ],
  "journalInfo": [
    {
      "issue": [
        "6"
      ],
      "volume": [
        "9"
      ],
      "journalIssueId": [
        "2078925"
      ],
      "dateOfPublication": [
        "2013 "
      ],
      "monthOfPublication": [
        "0"
      ],
      "yearOfPublication": [
        "2013"
      ],
      "printPublicationDate": [
        "2013-01-01"
      ],
      "journal": [
        {
          "title": [
            "PLoS pathogens"
          ],
          "ISOAbbreviation": [
            "PLoS Pathog."
          ],
          "medlineAbbreviation": [
            "PLoS Pathog"
          ],
          "NLMid": [
            "101238921"
          ],
          "ISSN": [
            "1553-7366"
          ],
          "ESSN": [
            "1553-7374"
          ]
        }
      ]
    }
  ],
  "pageInfo": [
    "e1003403"
  ],
  "abstractText": [
    "While phosphotyrosine modification is an established regulatory mechanism in eukaryotes, it is less well characterized in bacteria due to low prevalence. To gain insight into the extent and biological importance of tyrosine phosphorylation in Escherichia coli, we used immunoaffinity-based phosphotyrosine peptide enrichment combined with high resolution mass spectrometry analysis to comprehensively identify tyrosine phosphorylated proteins and accurately map phosphotyrosine sites. We identified a total of 512 unique phosphotyrosine sites on 342 proteins in E. coli K12 and the human pathogen enterohemorrhagic E. coli (EHEC) O157:H7, representing the largest phosphotyrosine proteome reported to date in bacteria. This large number of tyrosine phosphorylation sites allowed us to define five phosphotyrosine site motifs. Tyrosine phosphorylated proteins belong to various functional classes such as metabolism, gene expression and virulence. We demonstrate for the first time that proteins of a type III secretion system (T3SS), required for the attaching and effacing (A/E) lesion phenotype characteristic for intestinal colonization by certain EHEC strains, are tyrosine phosphorylated by bacterial kinases. Yet, A/E lesion and metabolic phenotypes were unaffected by the mutation of the two currently known tyrosine kinases, Etk and Wzc. Substantial residual tyrosine phosphorylation present in an etk wzc double mutant strongly indicated the presence of hitherto unknown tyrosine kinases in E. coli. We assess the functional importance of tyrosine phosphorylation and demonstrate that the phosphorylated tyrosine residue of the regulator SspA positively affects expression and secretion of T3SS proteins and formation of A/E lesions. Altogether, our study reveals that tyrosine phosphorylation in bacteria is more prevalent than previously recognized, and suggests the involvement of phosphotyrosine-mediated signaling in a broad range of cellular functions and virulence."
  ],
  "affiliation": [
    "Department of Microbiology and Immunology, University of Maryland School of Medicine, Baltimore, Maryland, United States of America."
  ],
  "language": [
    "eng"
  ],
  "pubModel": [
    "Print-Electronic"
  ],
  "pubTypeList": [
    {
      "pubType": [
        "Journal Article",
        "Research Support, Non-U.S. Gov't",
        "Research Support, N.I.H., Extramural"
      ]
    }
  ],
  "grantsList": [
    {
      "grant": [
        {
          "grantId": [
            "AI21657"
          ],
          "agency": [
            "NIAID NIH HHS"
          ],
          "acronym": [
            "AI"
          ],
          "orderIn": [
            "0"
          ]
        },
        {
          "grantId": [
            "DK58957"
          ],
          "agency": [
            "NIDDK NIH HHS"
          ],
          "acronym": [
            "DK"
          ],
          "orderIn": [
            "0"
          ]
        },
        {
          "grantId": [
            "MOP 82852"
          ],
          "agency": [
            "Canadian Institutes of Health Research"
          ],
          "orderIn": [
            "0"
          ]
        },
        {
          "grantId": [
            "U54RR020839"
          ],
          "agency": [
            "NCRR NIH HHS"
          ],
          "acronym": [
            "RR"
          ],
          "orderIn": [
            "0"
          ]
        },
        {
          "grantId": [
            "S10RR023025"
          ],
          "agency": [
            "NCRR NIH HHS"
          ],
          "acronym": [
            "RR"
          ],
          "orderIn": [
            "0"
          ]
        },
        {
          "grantId": [
            "U54 GM103520"
          ],
          "agency": [
            "NIGMS NIH HHS"
          ],
          "acronym": [
            "GM"
          ],
          "orderIn": [
            "0"
          ]
        },
        {
          "grantId": [
            "R37 AI021657"
          ],
          "agency": [
            "NIAID NIH HHS"
          ],
          "acronym": [
            "AI"
          ],
          "orderIn": [
            "0"
          ]
        }
      ]
    }
  ],
  "meshHeadingList": [
    {
      "meshHeading": [
        {
          "majorTopic_YN": [
            "N"
          ],
          "descriptorName": [
            "Escherichia coli K12"
          ],
          "meshQualifierList": [
            {
              "meshQualifier": [
                {
                  "abbreviation": [
                    "GE"
                  ],
                  "qualifierName": [
                    "genetics"
                  ],
                  "majorTopic_YN": [
                    "N"
                  ]
                },
                {
                  "abbreviation": [
                    "ME"
                  ],
                  "qualifierName": [
                    "metabolism"
                  ],
                  "majorTopic_YN": [
                    "Y"
                  ]
                }
              ]
            }
          ]
        },
        {
          "majorTopic_YN": [
            "N"
          ],
          "descriptorName": [
            "Phosphotyrosine"
          ],
          "meshQualifierList": [
            {
              "meshQualifier": [
                {
                  "abbreviation": [
                    "GE"
                  ],
                  "qualifierName": [
                    "genetics"
                  ],
                  "majorTopic_YN": [
                    "N"
                  ]
                },
                {
                  "abbreviation": [
                    "ME"
                  ],
                  "qualifierName": [
                    "metabolism"
                  ],
                  "majorTopic_YN": [
                    "Y"
                  ]
                }
              ]
            }
          ]
        },
        {
          "majorTopic_YN": [
            "N"
          ],
          "descriptorName": [
            "Escherichia coli Proteins"
          ],
          "meshQualifierList": [
            {
              "meshQualifier": [
                {
                  "abbreviation": [
                    "GE"
                  ],
                  "qualifierName": [
                    "genetics"
                  ],
                  "majorTopic_YN": [
                    "N"
                  ]
                },
                {
                  "abbreviation": [
                    "ME"
                  ],
                  "qualifierName": [
                    "metabolism"
                  ],
                  "majorTopic_YN": [
                    "Y"
                  ]
                }
              ]
            }
          ]
        },
        {
          "majorTopic_YN": [
            "N"
          ],
          "descriptorName": [
            "Membrane Proteins"
          ],
          "meshQualifierList": [
            {
              "meshQualifier": [
                {
                  "abbreviation": [
                    "GE"
                  ],
                  "qualifierName": [
                    "genetics"
                  ],
                  "majorTopic_YN": [
                    "N"
                  ]
                },
                {
                  "abbreviation": [
                    "ME"
                  ],
                  "qualifierName": [
                    "metabolism"
                  ],
                  "majorTopic_YN": [
                    "Y"
                  ]
                }
              ]
            }
          ]
        },
        {
          "majorTopic_YN": [
            "N"
          ],
          "descriptorName": [
            "Proteome"
          ],
          "meshQualifierList": [
            {
              "meshQualifier": [
                {
                  "abbreviation": [
                    "GE"
                  ],
                  "qualifierName": [
                    "genetics"
                  ],
                  "majorTopic_YN": [
                    "N"
                  ]
                },
                {
                  "abbreviation": [
                    "ME"
                  ],
                  "qualifierName": [
                    "metabolism"
                  ],
                  "majorTopic_YN": [
                    "Y"
                  ]
                }
              ]
            }
          ]
        },
        {
          "majorTopic_YN": [
            "N"
          ],
          "descriptorName": [
            "Signal Transduction"
          ],
          "meshQualifierList": [
            {
              "meshQualifier": [
                {
                  "abbreviation": [
                    "PH"
                  ],
                  "qualifierName": [
                    "physiology"
                  ],
                  "majorTopic_YN": [
                    "N"
                  ]
                }
              ]
            }
          ]
        },
        {
          "majorTopic_YN": [
            "N"
          ],
          "descriptorName": [
            "Protein-Tyrosine Kinases"
          ],
          "meshQualifierList": [
            {
              "meshQualifier": [
                {
                  "abbreviation": [
                    "GE"
                  ],
                  "qualifierName": [
                    "genetics"
                  ],
                  "majorTopic_YN": [
                    "N"
                  ]
                },
                {
                  "abbreviation": [
                    "ME"
                  ],
                  "qualifierName": [
                    "metabolism"
                  ],
                  "majorTopic_YN": [
                    "Y"
                  ]
                }
              ]
            }
          ]
        },
        {
          "majorTopic_YN": [
            "N"
          ],
          "descriptorName": [
            "Enteropathogenic Escherichia coli"
          ],
          "meshQualifierList": [
            {
              "meshQualifier": [
                {
                  "abbreviation": [
                    "GE"
                  ],
                  "qualifierName": [
                    "genetics"
                  ],
                  "majorTopic_YN": [
                    "N"
                  ]
                },
                {
                  "abbreviation": [
                    "ME"
                  ],
                  "qualifierName": [
                    "metabolism"
                  ],
                  "majorTopic_YN": [
                    "Y"
                  ]
                }
              ]
            }
          ]
        }
      ]
    }
  ],
  "chemicalList": [
    {
      "chemical": [
        {
          "name": [
            "Membrane Proteins"
          ],
          "registryNumber": [
            "0"
          ]
        },
        {
          "name": [
            "Escherichia coli Proteins"
          ],
          "registryNumber": [
            "0"
          ]
        },
        {
          "name": [
            "Phosphotyrosine"
          ],
          "registryNumber": [
            "21820-51-9"
          ]
        },
        {
          "name": [
            "Proteome"
          ],
          "registryNumber": [
            "0"
          ]
        },
        {
          "name": [
            "Etk protein, E coli"
          ],
          "registryNumber": [
            "0"
          ]
        },
        {
          "name": [
            "Protein-Tyrosine Kinases"
          ],
          "registryNumber": [
            "EC 2.7.10.1"
          ]
        },
        {
          "name": [
            "wzc protein, E coli"
          ],
          "registryNumber": [
            "EC 2.7.10.2"
          ]
        }
      ]
    }
  ],
  "subsetList": [
    {
      "subset": [
        {
          "code": [
            "IM"
          ],
          "name": [
            "Index Medicus"
          ]
        }
      ]
    }
  ],
  "fullTextUrlList": [
    {
      "fullTextUrl": [
        {
          "availability": [
            "Open access"
          ],
          "availabilityCode": [
            "OA"
          ],
          "documentStyle": [
            "pdf"
          ],
          "site": [
            "Europe_PMC"
          ],
          "url": [
            "http://europepmc.org/articles/PMC3681748?pdf=render"
          ]
        },
        {
          "availability": [
            "Open access"
          ],
          "availabilityCode": [
            "OA"
          ],
          "documentStyle": [
            "html"
          ],
          "site": [
            "Europe_PMC"
          ],
          "url": [
            "http://europepmc.org/articles/PMC3681748"
          ]
        },
        {
          "availability": [
            "Free"
          ],
          "availabilityCode": [
            "F"
          ],
          "documentStyle": [
            "html"
          ],
          "site": [
            "PubMedCentral"
          ],
          "url": [
            "http://www.pubmedcentral.nih.gov/articlerender.fcgi?tool=EBI&pubmedid=23785281"
          ]
        },
        {
          "availability": [
            "Free"
          ],
          "availabilityCode": [
            "F"
          ],
          "documentStyle": [
            "pdf"
          ],
          "site": [
            "PubMedCentral"
          ],
          "url": [
            "http://www.pubmedcentral.nih.gov/picrender.fcgi?tool=EBI&pubmedid=23785281&action=stream&blobtype=pdf"
          ]
        },
        {
          "availability": [
            "Subscription required"
          ],
          "availabilityCode": [
            "S"
          ],
          "documentStyle": [
            "doi"
          ],
          "site": [
            "DOI"
          ],
          "url": [
            "http://dx.doi.org/10.1371/journal.ppat.1003403"
          ]
        }
      ]
    }
  ],
  "isOpenAccess": [
    "Y"
  ],
  "inEPMC": [
    "Y"
  ],
  "inPMC": [
    "Y"
  ],
  "hasPDF": [
    "Y"
  ],
  "hasBook": [
    "N"
  ],
  "hasSuppl": [
    "Y"
  ],
  "citedByCount": [
    "14"
  ],
  "hasReferences": [
    "Y"
  ],
  "hasTextMinedTerms": [
    "Y"
  ],
  "hasDbCrossReferences": [
    "N"
  ],
  "hasLabsLinks": [
    "Y"
  ],
  "epmcAuthMan": [
    "N"
  ],
  "hasTMAccessionNumbers": [
    "Y"
  ],
  "tmAccessionTypeList": [
    {
      "accessionType": [
        "pdb"
      ]
    }
  ],
  "dateOfCompletion": [
    "2014-01-17"
  ],
  "dateOfCreation": [
    "2013-06-20"
  ],
  "dateOfRevision": [
    "2015-12-23"
  ],
  "electronicPublicationDate": [
    "2013-06-13"
  ],
  "firstPublicationDate": [
    "2013-06-13"
  ],
  "luceneScore": [
    "NaN"
  ]
}