{
  "id": [
    "24995332"
  ],
  "source": [
    "MED"
  ],
  "pmid": [
    "24995332"
  ],
  "pmcid": [
    "PMC4068046"
  ],
  "doi": [
    "10.1155/2014/874021"
  ],
  "title": [
    "Parasitic pneumonia and lung involvement."
  ],
  "authorString": [
    "Cheepsattayakorn A, Cheepsattayakorn R."
  ],
  "authorList": [
    {
      "author": [
        {
          "fullName": [
            "Cheepsattayakorn A"
          ],
          "firstName": [
            "Attapon"
          ],
          "lastName": [
            "Cheepsattayakorn"
          ],
          "initials": [
            "A"
          ],
          "authorId": [
            {
              "_": "0000-0002-0202-6875",
              "$": {
                "type": "ORCID"
              }
            }
          ],
          "affiliation": [
            "10th Zonal Tuberculosis and Chest Disease Center, Chiang Mai, Thailand ; 10th Office of Disease Prevention and Control, Department of Disease Control, Ministry of Public Health, Chiang Mai 50100, Thailand."
          ]
        },
        {
          "fullName": [
            "Cheepsattayakorn R"
          ],
          "firstName": [
            "Ruangrong"
          ],
          "lastName": [
            "Cheepsattayakorn"
          ],
          "initials": [
            "R"
          ],
          "affiliation": [
            "Department of Pathology, Faculty of Medicine, Chiang Mai University, Chiang Mai 50200, Thailand."
          ]
        }
      ]
    }
  ],
  "authorIdList": [
    {
      "authorId": [
        {
          "_": "0000-0002-0202-6875",
          "$": {
            "type": "ORCID"
          }
        }
      ]
    }
  ],
  "journalInfo": [
    {
      "volume": [
        "2014"
      ],
      "journalIssueId": [
        "2124924"
      ],
      "dateOfPublication": [
        "2014 "
      ],
      "monthOfPublication": [
        "0"
      ],
      "yearOfPublication": [
        "2014"
      ],
      "printPublicationDate": [
        "2014-01-01"
      ],
      "journal": [
        {
          "title": [
            "BioMed research international"
          ],
          "ISOAbbreviation": [
            "Biomed Res Int"
          ],
          "medlineAbbreviation": [
            "Biomed Res Int"
          ],
          "NLMid": [
            "101600173"
          ],
          "ISSN": [
            "2314-6133"
          ],
          "ESSN": [
            "2314-6141"
          ]
        }
      ]
    }
  ],
  "pageInfo": [
    "874021"
  ],
  "abstractText": [
    "Parasitic infestations demonstrated a decline in the past decade as a result of better hygiene practices and improved socioeconomic conditions. Nevertheless, global immigration, increased numbers of the immunocompromised people, international traveling, global warming, and rapid urbanization of the cities have increased the susceptibility of the world population to parasitic diseases. A number of new human parasites, such as Plasmodium knowlesi, in addition to many potential parasites, have urged the interest of scientific community. A broad spectrum of protozoal parasites frequently affects the respiratory system, particularly the lungs. The diagnosis of parasitic diseases of airway is challenging due to their wide varieties of clinical and roentgenographic presentations. So detailed interrogations of travel history to endemic areas are critical for clinicians or pulmonologists to manage this entity. The migrating adult worms can cause mechanical airway obstruction, while the larvae can cause airway inflammation. This paper provides a comprehensive review of both protozoal and helminthic infestations that affect the airway system, particularly the lungs, including clinical and roentgenographic presentations, diagnostic tests, and therapeutic approaches."
  ],
  "affiliation": [
    "10th Zonal Tuberculosis and Chest Disease Center, Chiang Mai, Thailand ; 10th Office of Disease Prevention and Control, Department of Disease Control, Ministry of Public Health, Chiang Mai 50100, Thailand."
  ],
  "language": [
    "eng"
  ],
  "pubModel": [
    "Print-Electronic"
  ],
  "pubTypeList": [
    {
      "pubType": [
        "Journal Article",
        "Review"
      ]
    }
  ],
  "meshHeadingList": [
    {
      "meshHeading": [
        {
          "majorTopic_YN": [
            "N"
          ],
          "descriptorName": [
            "Lung"
          ],
          "meshQualifierList": [
            {
              "meshQualifier": [
                {
                  "abbreviation": [
                    "PS"
                  ],
                  "qualifierName": [
                    "parasitology"
                  ],
                  "majorTopic_YN": [
                    "N"
                  ]
                },
                {
                  "abbreviation": [
                    "PA"
                  ],
                  "qualifierName": [
                    "pathology"
                  ],
                  "majorTopic_YN": [
                    "Y"
                  ]
                }
              ]
            }
          ]
        },
        {
          "majorTopic_YN": [
            "N"
          ],
          "descriptorName": [
            "Animals"
          ]
        },
        {
          "majorTopic_YN": [
            "N"
          ],
          "descriptorName": [
            "Humans"
          ]
        },
        {
          "majorTopic_YN": [
            "N"
          ],
          "descriptorName": [
            "Plasmodium"
          ],
          "meshQualifierList": [
            {
              "meshQualifier": [
                {
                  "abbreviation": [
                    "PY"
                  ],
                  "qualifierName": [
                    "pathogenicity"
                  ],
                  "majorTopic_YN": [
                    "N"
                  ]
                }
              ]
            }
          ]
        },
        {
          "majorTopic_YN": [
            "N"
          ],
          "descriptorName": [
            "Helminthiasis"
          ],
          "meshQualifierList": [
            {
              "meshQualifier": [
                {
                  "abbreviation": [
                    "PS"
                  ],
                  "qualifierName": [
                    "parasitology"
                  ],
                  "majorTopic_YN": [
                    "N"
                  ]
                },
                {
                  "abbreviation": [
                    "PA"
                  ],
                  "qualifierName": [
                    "pathology"
                  ],
                  "majorTopic_YN": [
                    "N"
                  ]
                }
              ]
            }
          ]
        },
        {
          "majorTopic_YN": [
            "N"
          ],
          "descriptorName": [
            "Malaria"
          ],
          "meshQualifierList": [
            {
              "meshQualifier": [
                {
                  "abbreviation": [
                    "CO"
                  ],
                  "qualifierName": [
                    "complications"
                  ],
                  "majorTopic_YN": [
                    "N"
                  ]
                },
                {
                  "abbreviation": [
                    "PS"
                  ],
                  "qualifierName": [
                    "parasitology"
                  ],
                  "majorTopic_YN": [
                    "N"
                  ]
                },
                {
                  "abbreviation": [
                    "PA"
                  ],
                  "qualifierName": [
                    "pathology"
                  ],
                  "majorTopic_YN": [
                    "Y"
                  ]
                }
              ]
            }
          ]
        },
        {
          "majorTopic_YN": [
            "N"
          ],
          "descriptorName": [
            "Amebiasis"
          ],
          "meshQualifierList": [
            {
              "meshQualifier": [
                {
                  "abbreviation": [
                    "CO"
                  ],
                  "qualifierName": [
                    "complications"
                  ],
                  "majorTopic_YN": [
                    "N"
                  ]
                },
                {
                  "abbreviation": [
                    "PS"
                  ],
                  "qualifierName": [
                    "parasitology"
                  ],
                  "majorTopic_YN": [
                    "N"
                  ]
                },
                {
                  "abbreviation": [
                    "PA"
                  ],
                  "qualifierName": [
                    "pathology"
                  ],
                  "majorTopic_YN": [
                    "Y"
                  ]
                }
              ]
            }
          ]
        },
        {
          "majorTopic_YN": [
            "N"
          ],
          "descriptorName": [
            "Pneumonia"
          ],
          "meshQualifierList": [
            {
              "meshQualifier": [
                {
                  "abbreviation": [
                    "CO"
                  ],
                  "qualifierName": [
                    "complications"
                  ],
                  "majorTopic_YN": [
                    "N"
                  ]
                },
                {
                  "abbreviation": [
                    "PS"
                  ],
                  "qualifierName": [
                    "parasitology"
                  ],
                  "majorTopic_YN": [
                    "N"
                  ]
                },
                {
                  "abbreviation": [
                    "PA"
                  ],
                  "qualifierName": [
                    "pathology"
                  ],
                  "majorTopic_YN": [
                    "Y"
                  ]
                }
              ]
            }
          ]
        }
      ]
    }
  ],
  "subsetList": [
    {
      "subset": [
        {
          "code": [
            "IM"
          ],
          "name": [
            "Index Medicus"
          ]
        }
      ]
    }
  ],
  "fullTextUrlList": [
    {
      "fullTextUrl": [
        {
          "availability": [
            "Open access"
          ],
          "availabilityCode": [
            "OA"
          ],
          "documentStyle": [
            "pdf"
          ],
          "site": [
            "Europe_PMC"
          ],
          "url": [
            "http://europepmc.org/articles/PMC4068046?pdf=render"
          ]
        },
        {
          "availability": [
            "Open access"
          ],
          "availabilityCode": [
            "OA"
          ],
          "documentStyle": [
            "html"
          ],
          "site": [
            "Europe_PMC"
          ],
          "url": [
            "http://europepmc.org/articles/PMC4068046"
          ]
        },
        {
          "availability": [
            "Free"
          ],
          "availabilityCode": [
            "F"
          ],
          "documentStyle": [
            "html"
          ],
          "site": [
            "PubMedCentral"
          ],
          "url": [
            "http://www.pubmedcentral.nih.gov/articlerender.fcgi?tool=EBI&pubmedid=24995332"
          ]
        },
        {
          "availability": [
            "Free"
          ],
          "availabilityCode": [
            "F"
          ],
          "documentStyle": [
            "pdf"
          ],
          "site": [
            "PubMedCentral"
          ],
          "url": [
            "http://www.pubmedcentral.nih.gov/picrender.fcgi?tool=EBI&pubmedid=24995332&action=stream&blobtype=pdf"
          ]
        },
        {
          "availability": [
            "Subscription required"
          ],
          "availabilityCode": [
            "S"
          ],
          "documentStyle": [
            "doi"
          ],
          "site": [
            "DOI"
          ],
          "url": [
            "http://dx.doi.org/10.1155/2014/874021"
          ]
        }
      ]
    }
  ],
  "isOpenAccess": [
    "Y"
  ],
  "inEPMC": [
    "Y"
  ],
  "inPMC": [
    "Y"
  ],
  "hasPDF": [
    "Y"
  ],
  "hasBook": [
    "N"
  ],
  "hasSuppl": [
    "N"
  ],
  "citedByCount": [
    "0"
  ],
  "hasReferences": [
    "Y"
  ],
  "hasTextMinedTerms": [
    "Y"
  ],
  "hasDbCrossReferences": [
    "N"
  ],
  "hasLabsLinks": [
    "N"
  ],
  "epmcAuthMan": [
    "N"
  ],
  "hasTMAccessionNumbers": [
    "N"
  ],
  "dateOfCompletion": [
    "2015-02-24"
  ],
  "dateOfCreation": [
    "2014-07-04"
  ],
  "electronicPublicationDate": [
    "2014-06-09"
  ],
  "firstPublicationDate": [
    "2014-06-09"
  ],
  "luceneScore": [
    "NaN"
  ]
}