{
  "id": [
    "21655350"
  ],
  "source": [
    "MED"
  ],
  "pmid": [
    "21655350"
  ],
  "pmcid": [
    "PMC3104956"
  ],
  "doi": [
    "10.1371/journal.pntd.0001145"
  ],
  "title": [
    "Meeting cholera's challenge to Haiti and the world: a joint statement on cholera prevention and care."
  ],
  "authorString": [
    "Farmer P, Almazor CP, Bahnsen ET, Barry D, Bazile J, Bloom BR, Bose N, Brewer T, Calderwood SB, Clemens JD, Cravioto A, Eustache E, Jérôme G, Gupta N, Harris JB, Hiatt HH, Holstein C, Hotez PJ, Ivers LC, Kerry VB, Koenig SP, Larocque RC, Léandre F, Lambert W, Lyon E, Mekalanos JJ, Mukherjee JS, Oswald C, Pape JW, Gretchko Prosper A, Rabinovich R, Raymonville M, Réjouit JR, Ronan LJ, Rosenberg ML, Ryan ET, Sachs JD, Sack DA, Surena C, Suri AA, Ternier R, Waldor MK, Walton D, Weigel JL."
  ],
  "authorList": [
    {
      "author": [
        {
          "fullName": [
            "Farmer P"
          ],
          "firstName": [
            "Paul"
          ],
          "lastName": [
            "Farmer"
          ],
          "initials": [
            "P"
          ],
          "affiliation": [
            "Department of Global Health and Social Medicine, Harvard Medical School, Boston, Massachusetts, United States of America. paul_farmer@hms.harvard.edu"
          ]
        },
        {
          "fullName": [
            "Almazor CP"
          ],
          "firstName": [
            "Charles Patrick"
          ],
          "lastName": [
            "Almazor"
          ],
          "initials": [
            "CP"
          ]
        },
        {
          "fullName": [
            "Bahnsen ET"
          ],
          "firstName": [
            "Emily T"
          ],
          "lastName": [
            "Bahnsen"
          ],
          "initials": [
            "ET"
          ]
        },
        {
          "fullName": [
            "Barry D"
          ],
          "firstName": [
            "Donna"
          ],
          "lastName": [
            "Barry"
          ],
          "initials": [
            "D"
          ]
        },
        {
          "fullName": [
            "Bazile J"
          ],
          "firstName": [
            "Junior"
          ],
          "lastName": [
            "Bazile"
          ],
          "initials": [
            "J"
          ]
        },
        {
          "fullName": [
            "Bloom BR"
          ],
          "firstName": [
            "Barry R"
          ],
          "lastName": [
            "Bloom"
          ],
          "initials": [
            "BR"
          ]
        },
        {
          "fullName": [
            "Bose N"
          ],
          "firstName": [
            "Niranjan"
          ],
          "lastName": [
            "Bose"
          ],
          "initials": [
            "N"
          ]
        },
        {
          "fullName": [
            "Brewer T"
          ],
          "firstName": [
            "Thomas"
          ],
          "lastName": [
            "Brewer"
          ],
          "initials": [
            "T"
          ]
        },
        {
          "fullName": [
            "Calderwood SB"
          ],
          "firstName": [
            "Stephen B"
          ],
          "lastName": [
            "Calderwood"
          ],
          "initials": [
            "SB"
          ]
        },
        {
          "fullName": [
            "Clemens JD"
          ],
          "firstName": [
            "John D"
          ],
          "lastName": [
            "Clemens"
          ],
          "initials": [
            "JD"
          ]
        },
        {
          "fullName": [
            "Cravioto A"
          ],
          "firstName": [
            "Alejandro"
          ],
          "lastName": [
            "Cravioto"
          ],
          "initials": [
            "A"
          ]
        },
        {
          "fullName": [
            "Eustache E"
          ],
          "firstName": [
            "Eddy"
          ],
          "lastName": [
            "Eustache"
          ],
          "initials": [
            "E"
          ]
        },
        {
          "fullName": [
            "Jérôme G"
          ],
          "firstName": [
            "Gregory"
          ],
          "lastName": [
            "Jérôme"
          ],
          "initials": [
            "G"
          ]
        },
        {
          "fullName": [
            "Gupta N"
          ],
          "firstName": [
            "Neha"
          ],
          "lastName": [
            "Gupta"
          ],
          "initials": [
            "N"
          ]
        },
        {
          "fullName": [
            "Harris JB"
          ],
          "firstName": [
            "Jason B"
          ],
          "lastName": [
            "Harris"
          ],
          "initials": [
            "JB"
          ]
        },
        {
          "fullName": [
            "Hiatt HH"
          ],
          "firstName": [
            "Howard H"
          ],
          "lastName": [
            "Hiatt"
          ],
          "initials": [
            "HH"
          ]
        },
        {
          "fullName": [
            "Holstein C"
          ],
          "firstName": [
            "Cassia"
          ],
          "lastName": [
            "Holstein"
          ],
          "initials": [
            "C"
          ]
        },
        {
          "fullName": [
            "Hotez PJ"
          ],
          "firstName": [
            "Peter J"
          ],
          "lastName": [
            "Hotez"
          ],
          "initials": [
            "PJ"
          ]
        },
        {
          "fullName": [
            "Ivers LC"
          ],
          "firstName": [
            "Louise C"
          ],
          "lastName": [
            "Ivers"
          ],
          "initials": [
            "LC"
          ]
        },
        {
          "fullName": [
            "Kerry VB"
          ],
          "firstName": [
            "Vanessa B"
          ],
          "lastName": [
            "Kerry"
          ],
          "initials": [
            "VB"
          ]
        },
        {
          "fullName": [
            "Koenig SP"
          ],
          "firstName": [
            "Serena P"
          ],
          "lastName": [
            "Koenig"
          ],
          "initials": [
            "SP"
          ]
        },
        {
          "fullName": [
            "Larocque RC"
          ],
          "firstName": [
            "Regina C"
          ],
          "lastName": [
            "Larocque"
          ],
          "initials": [
            "RC"
          ]
        },
        {
          "fullName": [
            "Léandre F"
          ],
          "firstName": [
            "Fernet"
          ],
          "lastName": [
            "Léandre"
          ],
          "initials": [
            "F"
          ]
        },
        {
          "fullName": [
            "Lambert W"
          ],
          "firstName": [
            "Wesler"
          ],
          "lastName": [
            "Lambert"
          ],
          "initials": [
            "W"
          ]
        },
        {
          "fullName": [
            "Lyon E"
          ],
          "firstName": [
            "Evan"
          ],
          "lastName": [
            "Lyon"
          ],
          "initials": [
            "E"
          ]
        },
        {
          "fullName": [
            "Mekalanos JJ"
          ],
          "firstName": [
            "John J"
          ],
          "lastName": [
            "Mekalanos"
          ],
          "initials": [
            "JJ"
          ]
        },
        {
          "fullName": [
            "Mukherjee JS"
          ],
          "firstName": [
            "Joia S"
          ],
          "lastName": [
            "Mukherjee"
          ],
          "initials": [
            "JS"
          ]
        },
        {
          "fullName": [
            "Oswald C"
          ],
          "firstName": [
            "Cate"
          ],
          "lastName": [
            "Oswald"
          ],
          "initials": [
            "C"
          ]
        },
        {
          "fullName": [
            "Pape JW"
          ],
          "firstName": [
            "Jean-William"
          ],
          "lastName": [
            "Pape"
          ],
          "initials": [
            "JW"
          ]
        },
        {
          "fullName": [
            "Gretchko Prosper A"
          ],
          "firstName": [
            "Anany"
          ],
          "lastName": [
            "Gretchko Prosper"
          ],
          "initials": [
            "A"
          ]
        },
        {
          "fullName": [
            "Rabinovich R"
          ],
          "firstName": [
            "Regina"
          ],
          "lastName": [
            "Rabinovich"
          ],
          "initials": [
            "R"
          ]
        },
        {
          "fullName": [
            "Raymonville M"
          ],
          "firstName": [
            "Maxi"
          ],
          "lastName": [
            "Raymonville"
          ],
          "initials": [
            "M"
          ]
        },
        {
          "fullName": [
            "Réjouit JR"
          ],
          "firstName": [
            "Jean-Renold"
          ],
          "lastName": [
            "Réjouit"
          ],
          "initials": [
            "JR"
          ]
        },
        {
          "fullName": [
            "Ronan LJ"
          ],
          "firstName": [
            "Laurence J"
          ],
          "lastName": [
            "Ronan"
          ],
          "initials": [
            "LJ"
          ]
        },
        {
          "fullName": [
            "Rosenberg ML"
          ],
          "firstName": [
            "Mark L"
          ],
          "lastName": [
            "Rosenberg"
          ],
          "initials": [
            "ML"
          ]
        },
        {
          "fullName": [
            "Ryan ET"
          ],
          "firstName": [
            "Edward T"
          ],
          "lastName": [
            "Ryan"
          ],
          "initials": [
            "ET"
          ]
        },
        {
          "fullName": [
            "Sachs JD"
          ],
          "firstName": [
            "Jeffrey D"
          ],
          "lastName": [
            "Sachs"
          ],
          "initials": [
            "JD"
          ]
        },
        {
          "fullName": [
            "Sack DA"
          ],
          "firstName": [
            "David A"
          ],
          "lastName": [
            "Sack"
          ],
          "initials": [
            "DA"
          ]
        },
        {
          "fullName": [
            "Surena C"
          ],
          "firstName": [
            "Claude"
          ],
          "lastName": [
            "Surena"
          ],
          "initials": [
            "C"
          ]
        },
        {
          "fullName": [
            "Suri AA"
          ],
          "firstName": [
            "Arjun A"
          ],
          "lastName": [
            "Suri"
          ],
          "initials": [
            "AA"
          ]
        },
        {
          "fullName": [
            "Ternier R"
          ],
          "firstName": [
            "Ralph"
          ],
          "lastName": [
            "Ternier"
          ],
          "initials": [
            "R"
          ]
        },
        {
          "fullName": [
            "Waldor MK"
          ],
          "firstName": [
            "Matthew K"
          ],
          "lastName": [
            "Waldor"
          ],
          "initials": [
            "MK"
          ]
        },
        {
          "fullName": [
            "Walton D"
          ],
          "firstName": [
            "David"
          ],
          "lastName": [
            "Walton"
          ],
          "initials": [
            "D"
          ]
        },
        {
          "fullName": [
            "Weigel JL"
          ],
          "firstName": [
            "Jonathan L"
          ],
          "lastName": [
            "Weigel"
          ],
          "initials": [
            "JL"
          ]
        }
      ]
    }
  ],
  "journalInfo": [
    {
      "issue": [
        "5"
      ],
      "volume": [
        "5"
      ],
      "journalIssueId": [
        "1832572"
      ],
      "dateOfPublication": [
        "2011 "
      ],
      "monthOfPublication": [
        "0"
      ],
      "yearOfPublication": [
        "2011"
      ],
      "printPublicationDate": [
        "2011-01-01"
      ],
      "journal": [
        {
          "title": [
            "PLoS neglected tropical diseases"
          ],
          "ISOAbbreviation": [
            "PLoS Negl Trop Dis"
          ],
          "medlineAbbreviation": [
            "PLoS Negl Trop Dis"
          ],
          "NLMid": [
            "101291488"
          ],
          "ISSN": [
            "1935-2727"
          ],
          "ESSN": [
            "1935-2735"
          ]
        }
      ]
    }
  ],
  "pageInfo": [
    "e1145"
  ],
  "affiliation": [
    "Department of Global Health and Social Medicine, Harvard Medical School, Boston, Massachusetts, United States of America. paul_farmer@hms.harvard.edu"
  ],
  "language": [
    "eng"
  ],
  "pubModel": [
    "Print-Electronic"
  ],
  "pubTypeList": [
    {
      "pubType": [
        "Journal Article",
        "Review"
      ]
    }
  ],
  "grantsList": [
    {
      "grant": [
        {
          "grantId": [
            "R37 AI042347"
          ],
          "agency": [
            "NIAID NIH HHS"
          ],
          "acronym": [
            "AI"
          ],
          "orderIn": [
            "0"
          ]
        }
      ]
    }
  ],
  "meshHeadingList": [
    {
      "meshHeading": [
        {
          "majorTopic_YN": [
            "N"
          ],
          "descriptorName": [
            "Humans"
          ]
        },
        {
          "majorTopic_YN": [
            "N"
          ],
          "descriptorName": [
            "Cholera"
          ],
          "meshQualifierList": [
            {
              "meshQualifier": [
                {
                  "abbreviation": [
                    "MO"
                  ],
                  "qualifierName": [
                    "mortality"
                  ],
                  "majorTopic_YN": [
                    "N"
                  ]
                },
                {
                  "abbreviation": [
                    "EP"
                  ],
                  "qualifierName": [
                    "epidemiology"
                  ],
                  "majorTopic_YN": [
                    "Y"
                  ]
                },
                {
                  "abbreviation": [
                    "PC"
                  ],
                  "qualifierName": [
                    "prevention & control"
                  ],
                  "majorTopic_YN": [
                    "Y"
                  ]
                }
              ]
            }
          ]
        },
        {
          "majorTopic_YN": [
            "N"
          ],
          "descriptorName": [
            "Incidence"
          ]
        },
        {
          "majorTopic_YN": [
            "Y"
          ],
          "descriptorName": [
            "Disease Outbreaks"
          ]
        },
        {
          "majorTopic_YN": [
            "N"
          ],
          "descriptorName": [
            "Communicable Disease Control"
          ],
          "meshQualifierList": [
            {
              "meshQualifier": [
                {
                  "abbreviation": [
                    "MT"
                  ],
                  "qualifierName": [
                    "methods"
                  ],
                  "majorTopic_YN": [
                    "Y"
                  ]
                }
              ]
            }
          ]
        },
        {
          "majorTopic_YN": [
            "N"
          ],
          "descriptorName": [
            "World Health"
          ]
        },
        {
          "majorTopic_YN": [
            "N"
          ],
          "descriptorName": [
            "Haiti"
          ],
          "meshQualifierList": [
            {
              "meshQualifier": [
                {
                  "abbreviation": [
                    "EP"
                  ],
                  "qualifierName": [
                    "epidemiology"
                  ],
                  "majorTopic_YN": [
                    "N"
                  ]
                }
              ]
            }
          ]
        }
      ]
    }
  ],
  "subsetList": [
    {
      "subset": [
        {
          "code": [
            "IM"
          ],
          "name": [
            "Index Medicus"
          ]
        }
      ]
    }
  ],
  "fullTextUrlList": [
    {
      "fullTextUrl": [
        {
          "availability": [
            "Open access"
          ],
          "availabilityCode": [
            "OA"
          ],
          "documentStyle": [
            "pdf"
          ],
          "site": [
            "Europe_PMC"
          ],
          "url": [
            "http://europepmc.org/articles/PMC3104956?pdf=render"
          ]
        },
        {
          "availability": [
            "Open access"
          ],
          "availabilityCode": [
            "OA"
          ],
          "documentStyle": [
            "html"
          ],
          "site": [
            "Europe_PMC"
          ],
          "url": [
            "http://europepmc.org/articles/PMC3104956"
          ]
        },
        {
          "availability": [
            "Free"
          ],
          "availabilityCode": [
            "F"
          ],
          "documentStyle": [
            "html"
          ],
          "site": [
            "PubMedCentral"
          ],
          "url": [
            "http://www.pubmedcentral.nih.gov/articlerender.fcgi?tool=EBI&pubmedid=21655350"
          ]
        },
        {
          "availability": [
            "Free"
          ],
          "availabilityCode": [
            "F"
          ],
          "documentStyle": [
            "pdf"
          ],
          "site": [
            "PubMedCentral"
          ],
          "url": [
            "http://www.pubmedcentral.nih.gov/picrender.fcgi?tool=EBI&pubmedid=21655350&action=stream&blobtype=pdf"
          ]
        },
        {
          "availability": [
            "Subscription required"
          ],
          "availabilityCode": [
            "S"
          ],
          "documentStyle": [
            "doi"
          ],
          "site": [
            "DOI"
          ],
          "url": [
            "http://dx.doi.org/10.1371/journal.pntd.0001145"
          ]
        }
      ]
    }
  ],
  "isOpenAccess": [
    "Y"
  ],
  "inEPMC": [
    "Y"
  ],
  "inPMC": [
    "Y"
  ],
  "hasPDF": [
    "Y"
  ],
  "hasBook": [
    "N"
  ],
  "hasSuppl": [
    "Y"
  ],
  "citedByCount": [
    "20"
  ],
  "hasReferences": [
    "Y"
  ],
  "hasTextMinedTerms": [
    "Y"
  ],
  "hasDbCrossReferences": [
    "N"
  ],
  "hasLabsLinks": [
    "Y"
  ],
  "epmcAuthMan": [
    "N"
  ],
  "hasTMAccessionNumbers": [
    "N"
  ],
  "dateOfCompletion": [
    "2011-09-26"
  ],
  "dateOfCreation": [
    "2011-06-09"
  ],
  "dateOfRevision": [
    "2014-09-22"
  ],
  "electronicPublicationDate": [
    "2011-05-31"
  ],
  "firstPublicationDate": [
    "2011-05-31"
  ],
  "luceneScore": [
    "NaN"
  ]
}