{
  "id": [
    "26401658"
  ],
  "source": [
    "MED"
  ],
  "pmid": [
    "26401658"
  ],
  "pmcid": [
    "PMC4581698"
  ],
  "doi": [
    "10.1371/journal.pntd.0004051"
  ],
  "title": [
    "African Program for Onchocerciasis Control 1995-2010: Impact of Annual Ivermectin Mass Treatment on Off-Target Infectious Diseases."
  ],
  "authorString": [
    "Krotneva SP, Coffeng LE, Noma M, Zouré HG, Bakoné L, Amazigo UV, de Vlas SJ, Stolk WA."
  ],
  "authorList": [
    {
      "author": [
        {
          "fullName": [
            "Krotneva SP"
          ],
          "firstName": [
            "Stanimira P"
          ],
          "lastName": [
            "Krotneva"
          ],
          "initials": [
            "SP"
          ],
          "affiliation": [
            "Department of Public Health, Erasmus MC, University Medical Center Rotterdam, Rotterdam, The Netherlands."
          ]
        },
        {
          "fullName": [
            "Coffeng LE"
          ],
          "firstName": [
            "Luc E"
          ],
          "lastName": [
            "Coffeng"
          ],
          "initials": [
            "LE"
          ],
          "affiliation": [
            "Department of Public Health, Erasmus MC, University Medical Center Rotterdam, Rotterdam, The Netherlands."
          ]
        },
        {
          "fullName": [
            "Noma M"
          ],
          "firstName": [
            "Mounkaila"
          ],
          "lastName": [
            "Noma"
          ],
          "initials": [
            "M"
          ],
          "affiliation": [
            "African Programme for Onchocerciasis Control, Ouagadougou, Burkina Faso."
          ]
        },
        {
          "fullName": [
            "Zouré HG"
          ],
          "firstName": [
            "Honorat G M"
          ],
          "lastName": [
            "Zouré"
          ],
          "initials": [
            "HG"
          ],
          "affiliation": [
            "African Programme for Onchocerciasis Control, Ouagadougou, Burkina Faso."
          ]
        },
        {
          "fullName": [
            "Bakoné L"
          ],
          "firstName": [
            "Lalle"
          ],
          "lastName": [
            "Bakoné"
          ],
          "initials": [
            "L"
          ],
          "affiliation": [
            "African Programme for Onchocerciasis Control, Ouagadougou, Burkina Faso."
          ]
        },
        {
          "fullName": [
            "Amazigo UV"
          ],
          "firstName": [
            "Uche V"
          ],
          "lastName": [
            "Amazigo"
          ],
          "initials": [
            "UV"
          ],
          "affiliation": [
            "Independent consultant, Enugu, Nigeria."
          ]
        },
        {
          "fullName": [
            "de Vlas SJ"
          ],
          "firstName": [
            "Sake J"
          ],
          "lastName": [
            "de Vlas"
          ],
          "initials": [
            "SJ"
          ],
          "affiliation": [
            "Department of Public Health, Erasmus MC, University Medical Center Rotterdam, Rotterdam, The Netherlands."
          ]
        },
        {
          "fullName": [
            "Stolk WA"
          ],
          "firstName": [
            "Wilma A"
          ],
          "lastName": [
            "Stolk"
          ],
          "initials": [
            "WA"
          ],
          "affiliation": [
            "Department of Public Health, Erasmus MC, University Medical Center Rotterdam, Rotterdam, The Netherlands."
          ]
        }
      ]
    }
  ],
  "journalInfo": [
    {
      "issue": [
        "9"
      ],
      "volume": [
        "9"
      ],
      "journalIssueId": [
        "2371199"
      ],
      "dateOfPublication": [
        "2015 "
      ],
      "monthOfPublication": [
        "0"
      ],
      "yearOfPublication": [
        "2015"
      ],
      "printPublicationDate": [
        "2015-01-01"
      ],
      "journal": [
        {
          "title": [
            "PLoS neglected tropical diseases"
          ],
          "ISOAbbreviation": [
            "PLoS Negl Trop Dis"
          ],
          "medlineAbbreviation": [
            "PLoS Negl Trop Dis"
          ],
          "NLMid": [
            "101291488"
          ],
          "ISSN": [
            "1935-2727"
          ],
          "ESSN": [
            "1935-2735"
          ]
        }
      ]
    }
  ],
  "pageInfo": [
    "e0004051"
  ],
  "abstractText": [
    "Since its initiation in 1995, the African Program for Onchocerciasis Control (APOC) has had a substantial impact on the prevalence and burden of onchocerciasis through annual ivermectin mass treatment. Ivermectin is a broad-spectrum anti-parasitic agent that also has an impact on other co-endemic parasitic infections. In this study, we roughly assessed the additional impact of APOC activities on the burden of the most important off-target infections: soil-transmitted helminthiases (STH; ascariasis, trichuriasis, hookworm, and strongyloidiasis), lymphatic filariasis (LF), and scabies. Based on a literature review, we formulated assumptions about the impact of ivermectin treatment on the disease burden of these off-target infections. Using data on the number of ivermectin treatments in APOC regions and the latest estimates of the burden of disease, we then calculated the impact of APOC activities on off-target infections in terms of disability-adjusted life years (DALYs) averted. We conservatively estimated that between 1995 and 2010, annual ivermectin mass treatment has cumulatively averted about 500 thousand DALYs from co-endemic STH infections, LF, and scabies. This impact comprised approximately an additional 5.5% relative to the total burden averted from onchocerciasis (8.9 million DALYs) and indicates that the overall cost-effectiveness of APOC is even higher than previously reported."
  ],
  "affiliation": [
    "Department of Public Health, Erasmus MC, University Medical Center Rotterdam, Rotterdam, The Netherlands."
  ],
  "language": [
    "eng"
  ],
  "pubModel": [
    "Electronic-eCollection"
  ],
  "pubTypeList": [
    {
      "pubType": [
        "Journal Article",
        "Research Support, Non-U.S. Gov't"
      ]
    }
  ],
  "meshHeadingList": [
    {
      "meshHeading": [
        {
          "majorTopic_YN": [
            "N"
          ],
          "descriptorName": [
            "Humans"
          ]
        },
        {
          "majorTopic_YN": [
            "N"
          ],
          "descriptorName": [
            "Scabies"
          ],
          "meshQualifierList": [
            {
              "meshQualifier": [
                {
                  "abbreviation": [
                    "EP"
                  ],
                  "qualifierName": [
                    "epidemiology"
                  ],
                  "majorTopic_YN": [
                    "Y"
                  ]
                }
              ]
            }
          ]
        },
        {
          "majorTopic_YN": [
            "N"
          ],
          "descriptorName": [
            "Helminthiasis"
          ],
          "meshQualifierList": [
            {
              "meshQualifier": [
                {
                  "abbreviation": [
                    "EP"
                  ],
                  "qualifierName": [
                    "epidemiology"
                  ],
                  "majorTopic_YN": [
                    "Y"
                  ]
                }
              ]
            }
          ]
        },
        {
          "majorTopic_YN": [
            "N"
          ],
          "descriptorName": [
            "Onchocerciasis"
          ],
          "meshQualifierList": [
            {
              "meshQualifier": [
                {
                  "abbreviation": [
                    "CO"
                  ],
                  "qualifierName": [
                    "complications"
                  ],
                  "majorTopic_YN": [
                    "Y"
                  ]
                },
                {
                  "abbreviation": [
                    "DT"
                  ],
                  "qualifierName": [
                    "drug therapy"
                  ],
                  "majorTopic_YN": [
                    "Y"
                  ]
                },
                {
                  "abbreviation": [
                    "EP"
                  ],
                  "qualifierName": [
                    "epidemiology"
                  ],
                  "majorTopic_YN": [
                    "N"
                  ]
                }
              ]
            }
          ]
        },
        {
          "majorTopic_YN": [
            "N"
          ],
          "descriptorName": [
            "Intestinal Diseases, Parasitic"
          ],
          "meshQualifierList": [
            {
              "meshQualifier": [
                {
                  "abbreviation": [
                    "EP"
                  ],
                  "qualifierName": [
                    "epidemiology"
                  ],
                  "majorTopic_YN": [
                    "Y"
                  ]
                }
              ]
            }
          ]
        },
        {
          "majorTopic_YN": [
            "N"
          ],
          "descriptorName": [
            "Ivermectin"
          ],
          "meshQualifierList": [
            {
              "meshQualifier": [
                {
                  "abbreviation": [
                    "AD"
                  ],
                  "qualifierName": [
                    "administration & dosage"
                  ],
                  "majorTopic_YN": [
                    "Y"
                  ]
                }
              ]
            }
          ]
        },
        {
          "majorTopic_YN": [
            "N"
          ],
          "descriptorName": [
            "Antiparasitic Agents"
          ],
          "meshQualifierList": [
            {
              "meshQualifier": [
                {
                  "abbreviation": [
                    "AD"
                  ],
                  "qualifierName": [
                    "administration & dosage"
                  ],
                  "majorTopic_YN": [
                    "Y"
                  ]
                }
              ]
            }
          ]
        },
        {
          "majorTopic_YN": [
            "N"
          ],
          "descriptorName": [
            "Prevalence"
          ]
        },
        {
          "majorTopic_YN": [
            "N"
          ],
          "descriptorName": [
            "Africa"
          ],
          "meshQualifierList": [
            {
              "meshQualifier": [
                {
                  "abbreviation": [
                    "EP"
                  ],
                  "qualifierName": [
                    "epidemiology"
                  ],
                  "majorTopic_YN": [
                    "N"
                  ]
                }
              ]
            }
          ]
        },
        {
          "majorTopic_YN": [
            "N"
          ],
          "descriptorName": [
            "Disease Transmission, Infectious"
          ],
          "meshQualifierList": [
            {
              "meshQualifier": [
                {
                  "abbreviation": [
                    "PC"
                  ],
                  "qualifierName": [
                    "prevention & control"
                  ],
                  "majorTopic_YN": [
                    "Y"
                  ]
                }
              ]
            }
          ]
        }
      ]
    }
  ],
  "chemicalList": [
    {
      "chemical": [
        {
          "name": [
            "Ivermectin"
          ],
          "registryNumber": [
            "70288-86-7"
          ]
        },
        {
          "name": [
            "Antiparasitic Agents"
          ],
          "registryNumber": [
            "0"
          ]
        }
      ]
    }
  ],
  "subsetList": [
    {
      "subset": [
        {
          "code": [
            "IM"
          ],
          "name": [
            "Index Medicus"
          ]
        }
      ]
    }
  ],
  "fullTextUrlList": [
    {
      "fullTextUrl": [
        {
          "availability": [
            "Open access"
          ],
          "availabilityCode": [
            "OA"
          ],
          "documentStyle": [
            "pdf"
          ],
          "site": [
            "Europe_PMC"
          ],
          "url": [
            "http://europepmc.org/articles/PMC4581698?pdf=render"
          ]
        },
        {
          "availability": [
            "Open access"
          ],
          "availabilityCode": [
            "OA"
          ],
          "documentStyle": [
            "html"
          ],
          "site": [
            "Europe_PMC"
          ],
          "url": [
            "http://europepmc.org/articles/PMC4581698"
          ]
        },
        {
          "availability": [
            "Subscription required"
          ],
          "availabilityCode": [
            "S"
          ],
          "documentStyle": [
            "doi"
          ],
          "site": [
            "DOI"
          ],
          "url": [
            "http://dx.doi.org/10.1371/journal.pntd.0004051"
          ]
        }
      ]
    }
  ],
  "isOpenAccess": [
    "Y"
  ],
  "inEPMC": [
    "Y"
  ],
  "inPMC": [
    "N"
  ],
  "hasPDF": [
    "Y"
  ],
  "hasBook": [
    "N"
  ],
  "hasSuppl": [
    "N"
  ],
  "citedByCount": [
    "1"
  ],
  "hasReferences": [
    "Y"
  ],
  "hasTextMinedTerms": [
    "Y"
  ],
  "hasDbCrossReferences": [
    "N"
  ],
  "hasLabsLinks": [
    "N"
  ],
  "license": [
    "cc by"
  ],
  "epmcAuthMan": [
    "N"
  ],
  "hasTMAccessionNumbers": [
    "N"
  ],
  "dateOfCompletion": [
    "2016-03-29"
  ],
  "dateOfCreation": [
    "2015-09-25"
  ],
  "dateOfRevision": [
    "2015-10-02"
  ],
  "electronicPublicationDate": [
    "2015-09-24"
  ],
  "firstPublicationDate": [
    "2015-09-24"
  ],
  "luceneScore": [
    "NaN"
  ]
}