{
  "id": [
    "23152775"
  ],
  "source": [
    "MED"
  ],
  "pmid": [
    "23152775"
  ],
  "pmcid": [
    "PMC3495941"
  ],
  "doi": [
    "10.1371/journal.pone.0048457"
  ],
  "title": [
    "The scale of faith based organization participation in health service delivery in developing countries: systematic [corrected] review and meta-analysis."
  ],
  "authorString": [
    "Kagawa RC, Anglemyer A, Montagu D."
  ],
  "authorList": [
    {
      "author": [
        {
          "fullName": [
            "Kagawa RC"
          ],
          "firstName": [
            "Rose Calnin"
          ],
          "lastName": [
            "Kagawa"
          ],
          "initials": [
            "RC"
          ]
        },
        {
          "fullName": [
            "Anglemyer A"
          ],
          "firstName": [
            "Andrew"
          ],
          "lastName": [
            "Anglemyer"
          ],
          "initials": [
            "A"
          ]
        },
        {
          "fullName": [
            "Montagu D"
          ],
          "firstName": [
            "Dominic"
          ],
          "lastName": [
            "Montagu"
          ],
          "initials": [
            "D"
          ]
        }
      ]
    }
  ],
  "journalInfo": [
    {
      "issue": [
        "11"
      ],
      "volume": [
        "7"
      ],
      "journalIssueId": [
        "1939990"
      ],
      "dateOfPublication": [
        "2012 "
      ],
      "monthOfPublication": [
        "0"
      ],
      "yearOfPublication": [
        "2012"
      ],
      "printPublicationDate": [
        "2012-01-01"
      ],
      "journal": [
        {
          "title": [
            "PloS one"
          ],
          "ISOAbbreviation": [
            "PLoS ONE"
          ],
          "medlineAbbreviation": [
            "PLoS One"
          ],
          "NLMid": [
            "101285081"
          ],
          "ESSN": [
            "1932-6203"
          ]
        }
      ]
    }
  ],
  "pageInfo": [
    "e48457"
  ],
  "abstractText": [
    "The extent of faith-based organizations' participation within the overall health systems of developing countries is unclear. Recent reports state that faith-based organizations play a substantial role in providing healthcare in developing countries, cited in some publications as up to 70% of all healthcare services. The data behind these numbers are sometimes difficult to pinpoint and seem at odds to national and regional survey data. In an effort to quantify the contribution of faith-based organizations to healthcare delivery in low- and middle-income countries, we undertook a systematic review of the literature and conducted a new analysis of relevant Demographic and Health Survey data from 47 countries. Our findings demonstrate that the magnitude of healthcare provided by faith-based organizations may be lower than previously estimated. Understanding the scale of FBO-provided medical care is important for health sector planning, and more accurate and complete estimates are needed."
  ],
  "affiliation": [
    "Global Health Group, University of California San Francisco, San Francisco, California, United States of America."
  ],
  "language": [
    "eng"
  ],
  "pubModel": [
    "Print-Electronic"
  ],
  "pubTypeList": [
    {
      "pubType": [
        "Journal Article",
        "Meta-Analysis",
        "Review",
        "Research Support, Non-U.S. Gov't"
      ]
    }
  ],
  "meshHeadingList": [
    {
      "meshHeading": [
        {
          "majorTopic_YN": [
            "N"
          ],
          "descriptorName": [
            "Humans"
          ]
        },
        {
          "majorTopic_YN": [
            "N"
          ],
          "descriptorName": [
            "Ambulatory Care"
          ]
        },
        {
          "majorTopic_YN": [
            "N"
          ],
          "descriptorName": [
            "Qualitative Research"
          ]
        },
        {
          "majorTopic_YN": [
            "Y"
          ],
          "descriptorName": [
            "Developing Countries"
          ]
        },
        {
          "majorTopic_YN": [
            "N"
          ],
          "descriptorName": [
            "Private Sector"
          ]
        },
        {
          "majorTopic_YN": [
            "N"
          ],
          "descriptorName": [
            "Inpatients"
          ]
        },
        {
          "majorTopic_YN": [
            "N"
          ],
          "descriptorName": [
            "Delivery of Health Care"
          ],
          "meshQualifierList": [
            {
              "meshQualifier": [
                {
                  "abbreviation": [
                    "OG"
                  ],
                  "qualifierName": [
                    "organization & administration"
                  ],
                  "majorTopic_YN": [
                    "Y"
                  ]
                }
              ]
            }
          ]
        }
      ]
    }
  ],
  "subsetList": [
    {
      "subset": [
        {
          "code": [
            "IM"
          ],
          "name": [
            "Index Medicus"
          ]
        }
      ]
    }
  ],
  "fullTextUrlList": [
    {
      "fullTextUrl": [
        {
          "availability": [
            "Open access"
          ],
          "availabilityCode": [
            "OA"
          ],
          "documentStyle": [
            "pdf"
          ],
          "site": [
            "Europe_PMC"
          ],
          "url": [
            "http://europepmc.org/articles/PMC3495941?pdf=render"
          ]
        },
        {
          "availability": [
            "Open access"
          ],
          "availabilityCode": [
            "OA"
          ],
          "documentStyle": [
            "html"
          ],
          "site": [
            "Europe_PMC"
          ],
          "url": [
            "http://europepmc.org/articles/PMC3495941"
          ]
        },
        {
          "availability": [
            "Free"
          ],
          "availabilityCode": [
            "F"
          ],
          "documentStyle": [
            "pdf"
          ],
          "site": [
            "PubMedCentral"
          ],
          "url": [
            "http://www.pubmedcentral.nih.gov/picrender.fcgi?tool=EBI&pubmedid=23152775&action=stream&blobtype=pdf"
          ]
        },
        {
          "availability": [
            "Free"
          ],
          "availabilityCode": [
            "F"
          ],
          "documentStyle": [
            "html"
          ],
          "site": [
            "PubMedCentral"
          ],
          "url": [
            "http://www.pubmedcentral.nih.gov/articlerender.fcgi?tool=EBI&pubmedid=23152775"
          ]
        },
        {
          "availability": [
            "Subscription required"
          ],
          "availabilityCode": [
            "S"
          ],
          "documentStyle": [
            "doi"
          ],
          "site": [
            "DOI"
          ],
          "url": [
            "http://dx.doi.org/10.1371/journal.pone.0048457"
          ]
        }
      ]
    }
  ],
  "commentCorrectionList": [
    {
      "commentCorrection": [
        {
          "source": [
            "MED"
          ],
          "reference": [
            "PLoS One. 2012;7(11). doi: 10.1371/annotation/1e80554b-4f8a-4381-97f1-46bf72cd07c9"
          ],
          "type": [
            "Erratum in"
          ],
          "orderIn": [
            "7"
          ]
        }
      ]
    }
  ],
  "isOpenAccess": [
    "Y"
  ],
  "inEPMC": [
    "Y"
  ],
  "inPMC": [
    "Y"
  ],
  "hasPDF": [
    "Y"
  ],
  "hasBook": [
    "N"
  ],
  "hasSuppl": [
    "Y"
  ],
  "citedByCount": [
    "2"
  ],
  "hasReferences": [
    "Y"
  ],
  "hasTextMinedTerms": [
    "Y"
  ],
  "hasDbCrossReferences": [
    "N"
  ],
  "hasLabsLinks": [
    "Y"
  ],
  "epmcAuthMan": [
    "N"
  ],
  "hasTMAccessionNumbers": [
    "N"
  ],
  "dateOfCompletion": [
    "2013-05-01"
  ],
  "dateOfCreation": [
    "2012-11-15"
  ],
  "dateOfRevision": [
    "2013-07-11"
  ],
  "electronicPublicationDate": [
    "2012-11-12"
  ],
  "firstPublicationDate": [
    "2012-11-12"
  ],
  "luceneScore": [
    "NaN"
  ]
}