{
  "id": [
    "26401352"
  ],
  "source": [
    "MED"
  ],
  "pmid": [
    "26401352"
  ],
  "pmcid": [
    "PMC4576800"
  ],
  "doi": [
    "10.5455/jice.20140112010648"
  ],
  "title": [
    "Chemical constituents in n-butanol fractions of Castus afer ker Gawl leaf and stem."
  ],
  "authorString": [
    "Anyasor GN, Funmilayo O, Odutola O, Olugbenga A, Oboutor EM."
  ],
  "authorList": [
    {
      "author": [
        {
          "fullName": [
            "Anyasor GN"
          ],
          "firstName": [
            "Godswill Nduka"
          ],
          "lastName": [
            "Anyasor"
          ],
          "initials": [
            "GN"
          ],
          "affiliation": [
            "Department of Biochemistry, Benjamin S. Carson School of Medicine, College of Health and Medical Sciences, Babcock University, Ilisan Remo, Ogun State, P.M.B. 21244 Ikeja, Lagos, Nigeria."
          ]
        },
        {
          "fullName": [
            "Funmilayo O"
          ],
          "firstName": [
            "Onajobi"
          ],
          "lastName": [
            "Funmilayo"
          ],
          "initials": [
            "O"
          ],
          "affiliation": [
            "Department of Biochemistry, Benjamin S. Carson School of Medicine, College of Health and Medical Sciences, Babcock University, Ilisan Remo, Ogun State, P.M.B. 21244 Ikeja, Lagos, Nigeria."
          ]
        },
        {
          "fullName": [
            "Odutola O"
          ],
          "firstName": [
            "Osilesi"
          ],
          "lastName": [
            "Odutola"
          ],
          "initials": [
            "O"
          ],
          "affiliation": [
            "Department of Biochemistry, Benjamin S. Carson School of Medicine, College of Health and Medical Sciences, Babcock University, Ilisan Remo, Ogun State, P.M.B. 21244 Ikeja, Lagos, Nigeria."
          ]
        },
        {
          "fullName": [
            "Olugbenga A"
          ],
          "firstName": [
            "Adebawo"
          ],
          "lastName": [
            "Olugbenga"
          ],
          "initials": [
            "A"
          ],
          "affiliation": [
            "Department of Biochemistry, Faculty of Basic Medical Sciences, O.A.C.H.S., Olabisi Onabanjo University, Remo Campus, Ikenne, Ogun State, Nigeria."
          ]
        },
        {
          "fullName": [
            "Oboutor EM"
          ],
          "firstName": [
            "Efere Martins"
          ],
          "lastName": [
            "Oboutor"
          ],
          "initials": [
            "EM"
          ],
          "affiliation": [
            "Department of Biochemistry, Faculty of Science, Obafemi Awolowo University, Ile-Ife, Nigeria."
          ]
        }
      ]
    }
  ],
  "journalInfo": [
    {
      "issue": [
        "2"
      ],
      "volume": [
        "3"
      ],
      "journalIssueId": [
        "2328003"
      ],
      "dateOfPublication": [
        "2014 Apr-Jun"
      ],
      "monthOfPublication": [
        "0"
      ],
      "yearOfPublication": [
        "2014"
      ],
      "printPublicationDate": [
        "2014-04-01"
      ],
      "journal": [
        {
          "title": [
            "Journal of intercultural ethnopharmacology"
          ],
          "ISOAbbreviation": [
            "J Intercult Ethnopharmacol"
          ],
          "medlineAbbreviation": [
            "J Intercult Ethnopharmacol"
          ],
          "NLMid": [
            "101653911"
          ],
          "ESSN": [
            "2146-8397"
          ]
        }
      ]
    }
  ],
  "pageInfo": [
    "78-84"
  ],
  "abstractText": [
    "AIM: This study was designed to investigate the bioactive compounds in Costus afer Ker Gawl, an indigenous African medicinal plant whose leaf and stem extracts are used in the treatment of chronic inflammatory diseases, especially rheumatism and arthritis. MATERIALS AND METHODS: The bioactive compounds present in the n-butanol fractions of C. afer leaf and stem were identified using qualitative phytochemical evaluation and gas chromatography-mass spectrometry (GC/MS) analytical method, comparing the mass spectra of the identified compounds with those of the National Institute of Standards and Technology database library. RESULTS: Qualitative analysis detected alkaloids, saponins, diterpenes, triterpenes, phytosterol, phlobatannins, and tannins in both n-butanol fractions of C. afer leaf and stem. Phenols were detected in leaves alone while flavonoids were present in stem alone. GC/MS data showed that the bioactive compounds in n-butanol fraction of C. afer leaf were indolizine, 2-methoxy-4 vinylphenol, phytol, hexadecanoic acid-methyl ester, n-hexadecanoic acid, 9,12-octadecanoic acid-methyl ester, eicosane, cis-vaccenic acid and oleic acid while n-butanol fraction of C. afer stem contain benzofuran,2,3-dihydro,2-methoxy-4 vinylphenol, 9-octadecenoic acid (Z)-2-hydroxy-1-(hydroxymethyl) ethyl ester, campesterol, stigmasterol, hexadecanoic acid-methyl ester, n-hexadecanoic acid, and cis-vaccenic acid. CONCLUSION: The bioactive compounds identified in the n-butanol fractions of C. afer leaves and stem may explain the folkloric use of C. afer plant in the treatment of chronic inflammatory and oxidative stress related diseases."
  ],
  "affiliation": [
    "Department of Biochemistry, Benjamin S. Carson School of Medicine, College of Health and Medical Sciences, Babcock University, Ilisan Remo, Ogun State, P.M.B. 21244 Ikeja, Lagos, Nigeria."
  ],
  "language": [
    "eng"
  ],
  "pubModel": [
    "Print-Electronic"
  ],
  "pubTypeList": [
    {
      "pubType": [
        "Journal Article"
      ]
    }
  ],
  "keywordList": [
    {
      "keyword": [
        "Leaf",
        "Stem",
        "Gas chromatography-mass spectrometry",
        "Butanol",
        "Costus Afer"
      ]
    }
  ],
  "fullTextUrlList": [
    {
      "fullTextUrl": [
        {
          "availability": [
            "Open access"
          ],
          "availabilityCode": [
            "OA"
          ],
          "documentStyle": [
            "pdf"
          ],
          "site": [
            "Europe_PMC"
          ],
          "url": [
            "http://europepmc.org/articles/PMC4576800?pdf=render"
          ]
        },
        {
          "availability": [
            "Open access"
          ],
          "availabilityCode": [
            "OA"
          ],
          "documentStyle": [
            "html"
          ],
          "site": [
            "Europe_PMC"
          ],
          "url": [
            "http://europepmc.org/articles/PMC4576800"
          ]
        },
        {
          "availability": [
            "Subscription required"
          ],
          "availabilityCode": [
            "S"
          ],
          "documentStyle": [
            "doi"
          ],
          "site": [
            "DOI"
          ],
          "url": [
            "http://dx.doi.org/10.5455/jice.20140112010648"
          ]
        }
      ]
    }
  ],
  "isOpenAccess": [
    "Y"
  ],
  "inEPMC": [
    "Y"
  ],
  "inPMC": [
    "N"
  ],
  "hasPDF": [
    "Y"
  ],
  "hasBook": [
    "N"
  ],
  "hasSuppl": [
    "N"
  ],
  "citedByCount": [
    "0"
  ],
  "hasReferences": [
    "Y"
  ],
  "hasTextMinedTerms": [
    "Y"
  ],
  "hasDbCrossReferences": [
    "N"
  ],
  "hasLabsLinks": [
    "N"
  ],
  "license": [
    "cc by-nc"
  ],
  "epmcAuthMan": [
    "N"
  ],
  "hasTMAccessionNumbers": [
    "N"
  ],
  "dateOfCompletion": [
    "2015-09-24"
  ],
  "dateOfCreation": [
    "2015-09-24"
  ],
  "dateOfRevision": [
    "2015-09-29"
  ],
  "electronicPublicationDate": [
    "2014-05-20"
  ],
  "firstPublicationDate": [
    "2014-04-01"
  ],
  "luceneScore": [
    "NaN"
  ]
}