{
  "publisher": {
    "value": []
  },
  "journal": {
    "value": []
  },
  "title": {
    "value": []
  },
  "authors": {
    "value": []
  },
  "date": {
    "value": []
  },
  "doi": {
    "value": []
  },
  "volume": {
    "value": []
  },
  "issue": {
    "value": []
  },
  "firstpage": {
    "value": []
  },
  "description": {
    "value": []
  },
  "abstract": {
    "value": []
  },
  "fulltext_html": {
    "value": []
  },
  "fulltext_pdf": {
    "value": []
  },
  "fulltext_xml": {
    "value": []
  },
  "supplementary_material": {
    "value": []
  },
  "figure": {
    "value": []
  },
  "figure_caption": {
    "value": []
  },
  "license": {
    "value": []
  },
  "copyright": {
    "value": []
  }
}