{
  "id": [
    "24367653"
  ],
  "source": [
    "MED"
  ],
  "pmid": [
    "24367653"
  ],
  "pmcid": [
    "PMC3868617"
  ],
  "doi": [
    "10.1371/journal.pone.0084314"
  ],
  "title": [
    "Perceptions of health, health care and community-oriented health interventions in poor urban communities of Kinshasa, Democratic Republic of Congo."
  ],
  "authorString": [
    "Maketa V, Vuna M, Baloji S, Lubanza S, Hendrickx D, Inocêncio da Luz RA, Boelaert M, Lutumba P."
  ],
  "authorList": [
    {
      "author": [
        {
          "fullName": [
            "Maketa V"
          ],
          "firstName": [
            "Vivi"
          ],
          "lastName": [
            "Maketa"
          ],
          "initials": [
            "V"
          ],
          "affiliation": [
            "Department of Tropical Medicine, University of Kinshasa, Kinshasa, Democratic Republic of Congo."
          ]
        },
        {
          "fullName": [
            "Vuna M"
          ],
          "firstName": [
            "Mimy"
          ],
          "lastName": [
            "Vuna"
          ],
          "initials": [
            "M"
          ],
          "affiliation": [
            "Epidemiology unit, Institut National de Recherche Biomédicale, Kinshasa, Democratic Republic of Congo."
          ]
        },
        {
          "fullName": [
            "Baloji S"
          ],
          "firstName": [
            "Sylvain"
          ],
          "lastName": [
            "Baloji"
          ],
          "initials": [
            "S"
          ],
          "affiliation": [
            "Epidemiology unit, Institut Supérieur de Techniques Médicales, Kinshasa, Democratic Republic of Congo."
          ]
        },
        {
          "fullName": [
            "Lubanza S"
          ],
          "firstName": [
            "Symphorien"
          ],
          "lastName": [
            "Lubanza"
          ],
          "initials": [
            "S"
          ],
          "affiliation": [
            "Department of Social Science, University of Kinshasa, Kinshasa, Democratic Republic of Congo."
          ]
        },
        {
          "fullName": [
            "Hendrickx D"
          ],
          "firstName": [
            "David"
          ],
          "lastName": [
            "Hendrickx"
          ],
          "initials": [
            "D"
          ],
          "affiliation": [
            "Department of Public Health, Institute of Tropical Medicine, Antwerp, Belgium ; Telethon Institute for Child Health Research, The University of Western Australia, West Perth, Australia."
          ]
        },
        {
          "fullName": [
            "Inocêncio da Luz RA"
          ],
          "firstName": [
            "Raquel Andrea"
          ],
          "lastName": [
            "Inocêncio da Luz"
          ],
          "initials": [
            "RA"
          ],
          "affiliation": [
            "International Health Unit, Faculty of Medicine, University of Antwerp, Antwerp, Belgium."
          ]
        },
        {
          "fullName": [
            "Boelaert M"
          ],
          "firstName": [
            "Marleen"
          ],
          "lastName": [
            "Boelaert"
          ],
          "initials": [
            "M"
          ],
          "affiliation": [
            "Department of Public Health, Institute of Tropical Medicine, Antwerp, Belgium."
          ]
        },
        {
          "fullName": [
            "Lutumba P"
          ],
          "firstName": [
            "Pascal"
          ],
          "lastName": [
            "Lutumba"
          ],
          "initials": [
            "P"
          ],
          "affiliation": [
            "Department of Tropical Medicine, University of Kinshasa, Kinshasa, Democratic Republic of Congo ; Epidemiology unit, Institut National de Recherche Biomédicale, Kinshasa, Democratic Republic of Congo ; Department of Public Health, Institute of Tropical Medicine, Antwerp, Belgium."
          ]
        }
      ]
    }
  ],
  "journalInfo": [
    {
      "issue": [
        "12"
      ],
      "volume": [
        "8"
      ],
      "journalIssueId": [
        "2102409"
      ],
      "dateOfPublication": [
        "2013 "
      ],
      "monthOfPublication": [
        "0"
      ],
      "yearOfPublication": [
        "2013"
      ],
      "printPublicationDate": [
        "2013-01-01"
      ],
      "journal": [
        {
          "title": [
            "PloS one"
          ],
          "ISOAbbreviation": [
            "PLoS ONE"
          ],
          "medlineAbbreviation": [
            "PLoS One"
          ],
          "NLMid": [
            "101285081"
          ],
          "ESSN": [
            "1932-6203"
          ]
        }
      ]
    }
  ],
  "pageInfo": [
    "e84314"
  ],
  "abstractText": [
    "In Democratic Republic of Congo access to health care is limited because of many geographical and financial barriers, while quality of care is often low. Global health donors assist the country with a number of community-oriented interventions such as free distribution of bednets, antihelminthic drugs, vitamin A supplementation and vaccination campaigns, but uptake of these interventions is not always optimal. The aim of this study was to explore the perceptions of poor urban communities of the capital Kinshasa with regard to health issues in general as well as their experiences and expectations concerning facility-based health services and community-oriented health interventions. Applying an approach rooted in the grounded theory framework, focus group discussions were conducted in eight neighborhoods of poor urban areas in the city of Kinshasa in July 2011. Study participants were easily able to evoke the city's major health problems, with the notable exceptions of malnutrition and HIV/AIDS. They perceive the high out-of-pocket cost of health services as the major obstacle when seeking access to quality care. Knowledge of ongoing community-oriented health interventions seems good. Still, while the study participants agree that those interventions are beneficial; their acceptability seems to be problematic. This is chiefly put down to a lack of information and government communication about the programs and their interventions. Furthermore, the study participants referred to rumors and the deterring effect of stories about alleged harmful consequences of those interventions. Along with improving the provision and quality of general health care, the government and international actors must improve their efforts in informing the communities about disease control programs, their rationale and benefit/risk ratio. Directly engaging community members in a dialogue might be beneficial in terms of improving acceptability and overall access to health services and interventions. Novel ways of reducing the high out-of-pocket expenditure should also be explored."
  ],
  "affiliation": [
    "Department of Tropical Medicine, University of Kinshasa, Kinshasa, Democratic Republic of Congo."
  ],
  "language": [
    "eng"
  ],
  "pubModel": [
    "Electronic-eCollection"
  ],
  "pubTypeList": [
    {
      "pubType": [
        "Journal Article",
        "Research Support, Non-U.S. Gov't"
      ]
    }
  ],
  "meshHeadingList": [
    {
      "meshHeading": [
        {
          "majorTopic_YN": [
            "N"
          ],
          "descriptorName": [
            "Humans"
          ]
        },
        {
          "majorTopic_YN": [
            "N"
          ],
          "descriptorName": [
            "Focus Groups"
          ]
        },
        {
          "majorTopic_YN": [
            "N"
          ],
          "descriptorName": [
            "Health Knowledge, Attitudes, Practice"
          ]
        },
        {
          "majorTopic_YN": [
            "N"
          ],
          "descriptorName": [
            "Perception"
          ]
        },
        {
          "majorTopic_YN": [
            "N"
          ],
          "descriptorName": [
            "Cities"
          ],
          "meshQualifierList": [
            {
              "meshQualifier": [
                {
                  "abbreviation": [
                    "SN"
                  ],
                  "qualifierName": [
                    "statistics & numerical data"
                  ],
                  "majorTopic_YN": [
                    "Y"
                  ]
                }
              ]
            }
          ]
        },
        {
          "majorTopic_YN": [
            "N"
          ],
          "descriptorName": [
            "Public Policy"
          ]
        },
        {
          "majorTopic_YN": [
            "Y"
          ],
          "descriptorName": [
            "Poverty"
          ]
        },
        {
          "majorTopic_YN": [
            "N"
          ],
          "descriptorName": [
            "Community Health Services"
          ],
          "meshQualifierList": [
            {
              "meshQualifier": [
                {
                  "abbreviation": [
                    "SN"
                  ],
                  "qualifierName": [
                    "statistics & numerical data"
                  ],
                  "majorTopic_YN": [
                    "Y"
                  ]
                }
              ]
            }
          ]
        },
        {
          "majorTopic_YN": [
            "N"
          ],
          "descriptorName": [
            "Health Priorities"
          ]
        },
        {
          "majorTopic_YN": [
            "N"
          ],
          "descriptorName": [
            "Delivery of Health Care"
          ],
          "meshQualifierList": [
            {
              "meshQualifier": [
                {
                  "abbreviation": [
                    "SN"
                  ],
                  "qualifierName": [
                    "statistics & numerical data"
                  ],
                  "majorTopic_YN": [
                    "Y"
                  ]
                }
              ]
            }
          ]
        },
        {
          "majorTopic_YN": [
            "N"
          ],
          "descriptorName": [
            "Health Services Accessibility"
          ],
          "meshQualifierList": [
            {
              "meshQualifier": [
                {
                  "abbreviation": [
                    "SN"
                  ],
                  "qualifierName": [
                    "statistics & numerical data"
                  ],
                  "majorTopic_YN": [
                    "Y"
                  ]
                }
              ]
            }
          ]
        },
        {
          "majorTopic_YN": [
            "N"
          ],
          "descriptorName": [
            "Democratic Republic of the Congo"
          ]
        }
      ]
    }
  ],
  "subsetList": [
    {
      "subset": [
        {
          "code": [
            "IM"
          ],
          "name": [
            "Index Medicus"
          ]
        }
      ]
    }
  ],
  "fullTextUrlList": [
    {
      "fullTextUrl": [
        {
          "availability": [
            "Open access"
          ],
          "availabilityCode": [
            "OA"
          ],
          "documentStyle": [
            "pdf"
          ],
          "site": [
            "Europe_PMC"
          ],
          "url": [
            "http://europepmc.org/articles/PMC3868617?pdf=render"
          ]
        },
        {
          "availability": [
            "Open access"
          ],
          "availabilityCode": [
            "OA"
          ],
          "documentStyle": [
            "html"
          ],
          "site": [
            "Europe_PMC"
          ],
          "url": [
            "http://europepmc.org/articles/PMC3868617"
          ]
        },
        {
          "availability": [
            "Free"
          ],
          "availabilityCode": [
            "F"
          ],
          "documentStyle": [
            "pdf"
          ],
          "site": [
            "PubMedCentral"
          ],
          "url": [
            "http://www.pubmedcentral.nih.gov/picrender.fcgi?tool=EBI&pubmedid=24367653&action=stream&blobtype=pdf"
          ]
        },
        {
          "availability": [
            "Free"
          ],
          "availabilityCode": [
            "F"
          ],
          "documentStyle": [
            "html"
          ],
          "site": [
            "PubMedCentral"
          ],
          "url": [
            "http://www.pubmedcentral.nih.gov/articlerender.fcgi?tool=EBI&pubmedid=24367653"
          ]
        },
        {
          "availability": [
            "Subscription required"
          ],
          "availabilityCode": [
            "S"
          ],
          "documentStyle": [
            "doi"
          ],
          "site": [
            "DOI"
          ],
          "url": [
            "http://dx.doi.org/10.1371/journal.pone.0084314"
          ]
        }
      ]
    }
  ],
  "isOpenAccess": [
    "Y"
  ],
  "inEPMC": [
    "Y"
  ],
  "inPMC": [
    "Y"
  ],
  "hasPDF": [
    "Y"
  ],
  "hasBook": [
    "N"
  ],
  "hasSuppl": [
    "N"
  ],
  "citedByCount": [
    "1"
  ],
  "hasReferences": [
    "Y"
  ],
  "hasTextMinedTerms": [
    "Y"
  ],
  "hasDbCrossReferences": [
    "N"
  ],
  "hasLabsLinks": [
    "N"
  ],
  "license": [
    "cc by"
  ],
  "epmcAuthMan": [
    "N"
  ],
  "hasTMAccessionNumbers": [
    "N"
  ],
  "dateOfCompletion": [
    "2014-10-13"
  ],
  "dateOfCreation": [
    "2013-12-24"
  ],
  "electronicPublicationDate": [
    "2013-12-19"
  ],
  "firstPublicationDate": [
    "2013-12-19"
  ],
  "luceneScore": [
    "NaN"
  ]
}