{
  "id": [
    "26266057"
  ],
  "source": [
    "MED"
  ],
  "pmid": [
    "26266057"
  ],
  "pmcid": [
    "PMC4523650"
  ],
  "doi": [
    "10.1155/2015/727286"
  ],
  "title": [
    "Canine Gouging: A Taboo Resurfacing in Migrant Urban Population."
  ],
  "authorString": [
    "Noman AV, Wong F, Pawar RR."
  ],
  "authorList": [
    {
      "author": [
        {
          "fullName": [
            "Noman AV"
          ],
          "firstName": [
            "Anila Virani"
          ],
          "lastName": [
            "Noman"
          ],
          "initials": [
            "AV"
          ],
          "affiliation": [
            "Centre for Oral Growth & Development, Paediatric Dentistry, Queen Mary University of London, Barts and The London School of Medicine and Dentistry, Institute of Dentistry, Turner Street, London E1 2AD, UK."
          ]
        },
        {
          "fullName": [
            "Wong F"
          ],
          "firstName": [
            "Ferranti"
          ],
          "lastName": [
            "Wong"
          ],
          "initials": [
            "F"
          ],
          "affiliation": [
            "Centre for Oral Growth & Development, Paediatric Dentistry, Queen Mary University of London, Barts and The London School of Medicine and Dentistry, Institute of Dentistry, Turner Street, London E1 2AD, UK."
          ]
        },
        {
          "fullName": [
            "Pawar RR"
          ],
          "firstName": [
            "Ravikiran Ramakrishna"
          ],
          "lastName": [
            "Pawar"
          ],
          "initials": [
            "RR"
          ],
          "affiliation": [
            "Dental and Maxillofacial Radiology, Queen Mary University of London, Barts and The London School of Medicine and Dentistry, Institute of Dentistry, Turner Street, London E1 2AD, UK."
          ]
        }
      ]
    }
  ],
  "journalInfo": [
    {
      "volume": [
        "2015"
      ],
      "journalIssueId": [
        "2273074"
      ],
      "dateOfPublication": [
        "2015"
      ],
      "monthOfPublication": [
        "0"
      ],
      "yearOfPublication": [
        "2015"
      ],
      "printPublicationDate": [
        "2015-01-01"
      ],
      "journal": [
        {
          "title": [
            "Case reports in dentistry"
          ],
          "ISOAbbreviation": [
            "Case Rep Dent"
          ],
          "medlineAbbreviation": [
            "Case Rep Dent"
          ],
          "NLMid": [
            "101573242"
          ],
          "ISSN": [
            "2090-6447"
          ],
          "ESSN": [
            "2090-6455"
          ]
        }
      ]
    }
  ],
  "pageInfo": [
    "727286"
  ],
  "abstractText": [
    "Cosmopolitan cities have become a pool of migrants from different parts of the world, who carry their cultural beliefs and superstitions with them around the globe. Canine gouging is a kind of infant oral mutilation (IOM) which is widely practiced among rural population of Africa where the primary tooth bud of the deciduous canine is enucleated. The belief is that the life threatening illnesses in children like vomiting, diarrhoea, and fevers are caused by worms which infest on tooth buds. This case report is of a 15-year-old Somalian born boy, who presented at the dental institute with intermittent pain in his lower right permanent canine which was associated with a discharging intra oral buccal sinus. The tooth was endodontically treated and then restored with composite. General dental practitioners need to be vigilant when encountered with tooth presenting unusual morphology, unilateral missing tooth, and shift in the midline due to early loss of deciduous/permanent canines. Identification of any such dental mutilation practice will need further counselling of the individual and family members. It is the duty of every dental professional to educate and safeguard the oral and dental health of general public."
  ],
  "affiliation": [
    "Centre for Oral Growth & Development, Paediatric Dentistry, Queen Mary University of London, Barts and The London School of Medicine and Dentistry, Institute of Dentistry, Turner Street, London E1 2AD, UK."
  ],
  "language": [
    "eng"
  ],
  "pubModel": [
    "Print-Electronic"
  ],
  "pubTypeList": [
    {
      "pubType": [
        "Journal Article"
      ]
    }
  ],
  "fullTextUrlList": [
    {
      "fullTextUrl": [
        {
          "availability": [
            "Open access"
          ],
          "availabilityCode": [
            "OA"
          ],
          "documentStyle": [
            "pdf"
          ],
          "site": [
            "Europe_PMC"
          ],
          "url": [
            "http://europepmc.org/articles/PMC4523650?pdf=render"
          ]
        },
        {
          "availability": [
            "Open access"
          ],
          "availabilityCode": [
            "OA"
          ],
          "documentStyle": [
            "html"
          ],
          "site": [
            "Europe_PMC"
          ],
          "url": [
            "http://europepmc.org/articles/PMC4523650"
          ]
        },
        {
          "availability": [
            "Subscription required"
          ],
          "availabilityCode": [
            "S"
          ],
          "documentStyle": [
            "doi"
          ],
          "site": [
            "DOI"
          ],
          "url": [
            "http://dx.doi.org/10.1155/2015/727286"
          ]
        }
      ]
    }
  ],
  "isOpenAccess": [
    "Y"
  ],
  "inEPMC": [
    "Y"
  ],
  "inPMC": [
    "N"
  ],
  "hasPDF": [
    "Y"
  ],
  "hasBook": [
    "N"
  ],
  "hasSuppl": [
    "N"
  ],
  "citedByCount": [
    "0"
  ],
  "hasReferences": [
    "Y"
  ],
  "hasTextMinedTerms": [
    "Y"
  ],
  "hasDbCrossReferences": [
    "N"
  ],
  "hasLabsLinks": [
    "N"
  ],
  "epmcAuthMan": [
    "N"
  ],
  "hasTMAccessionNumbers": [
    "N"
  ],
  "dateOfCompletion": [
    "2015-08-12"
  ],
  "dateOfCreation": [
    "2015-08-12"
  ],
  "dateOfRevision": [
    "2015-08-14"
  ],
  "electronicPublicationDate": [
    "2015-07-21"
  ],
  "firstPublicationDate": [
    "2015-07-21"
  ],
  "luceneScore": [
    "NaN"
  ]
}