{
  "id": [
    "26901785"
  ],
  "source": [
    "MED"
  ],
  "pmid": [
    "26901785"
  ],
  "pmcid": [
    "PMC4764691"
  ],
  "doi": [
    "10.1371/journal.pntd.0004456"
  ],
  "title": [
    "Delayed Time-to-Treatment of an Antisense Morpholino Oligomer Is Effective against Lethal Marburg Virus Infection in Cynomolgus Macaques."
  ],
  "authorString": [
    "Warren TK, Whitehouse CA, Wells J, Welch L, Charleston JS, Heald A, Nichols DK, Mattix ME, Palacios G, Kugleman JR, Iversen PL, Bavari S."
  ],
  "authorList": [
    {
      "author": [
        {
          "fullName": [
            "Warren TK"
          ],
          "firstName": [
            "Travis K"
          ],
          "lastName": [
            "Warren"
          ],
          "initials": [
            "TK"
          ],
          "affiliation": [
            "Molecular and Translational Sciences Division, United States Army Medical Research Institute of Infectious Diseases, Frederick, Maryland, United States of America."
          ]
        },
        {
          "fullName": [
            "Whitehouse CA"
          ],
          "firstName": [
            "Chris A"
          ],
          "lastName": [
            "Whitehouse"
          ],
          "initials": [
            "CA"
          ],
          "affiliation": [
            "Molecular and Translational Sciences Division, United States Army Medical Research Institute of Infectious Diseases, Frederick, Maryland, United States of America."
          ]
        },
        {
          "fullName": [
            "Wells J"
          ],
          "firstName": [
            "Jay"
          ],
          "lastName": [
            "Wells"
          ],
          "initials": [
            "J"
          ],
          "affiliation": [
            "Molecular and Translational Sciences Division, United States Army Medical Research Institute of Infectious Diseases, Frederick, Maryland, United States of America."
          ]
        },
        {
          "fullName": [
            "Welch L"
          ],
          "firstName": [
            "Lisa"
          ],
          "lastName": [
            "Welch"
          ],
          "initials": [
            "L"
          ],
          "affiliation": [
            "Molecular and Translational Sciences Division, United States Army Medical Research Institute of Infectious Diseases, Frederick, Maryland, United States of America."
          ]
        },
        {
          "fullName": [
            "Charleston JS"
          ],
          "firstName": [
            "Jay S"
          ],
          "lastName": [
            "Charleston"
          ],
          "initials": [
            "JS"
          ],
          "affiliation": [
            "Sarepta Therapeutics, Inc., Cambridge, Massachusetts, United States of America."
          ]
        },
        {
          "fullName": [
            "Heald A"
          ],
          "firstName": [
            "Alison"
          ],
          "lastName": [
            "Heald"
          ],
          "initials": [
            "A"
          ],
          "affiliation": [
            "Sarepta Therapeutics, Inc., Cambridge, Massachusetts, United States of America."
          ]
        },
        {
          "fullName": [
            "Nichols DK"
          ],
          "firstName": [
            "Donald K"
          ],
          "lastName": [
            "Nichols"
          ],
          "initials": [
            "DK"
          ],
          "affiliation": [
            "Pathology Division, United States Army Medical Research Institute of Infectious Diseases, Frederick, Maryland, United States of America."
          ]
        },
        {
          "fullName": [
            "Mattix ME"
          ],
          "firstName": [
            "Marc E"
          ],
          "lastName": [
            "Mattix"
          ],
          "initials": [
            "ME"
          ],
          "affiliation": [
            "Pathology Division, United States Army Medical Research Institute of Infectious Diseases, Frederick, Maryland, United States of America."
          ]
        },
        {
          "fullName": [
            "Palacios G"
          ],
          "firstName": [
            "Gustavo"
          ],
          "lastName": [
            "Palacios"
          ],
          "initials": [
            "G"
          ],
          "authorId": [
            {
              "_": "0000-0001-5062-1938",
              "$": {
                "type": "ORCID"
              }
            }
          ],
          "affiliation": [
            "Center for Genome Sciences, United States Army Medical Research Institute of Infectious Diseases, Frederick, Maryland, United States of America."
          ]
        },
        {
          "fullName": [
            "Kugleman JR"
          ],
          "firstName": [
            "Jeffrey R"
          ],
          "lastName": [
            "Kugleman"
          ],
          "initials": [
            "JR"
          ],
          "affiliation": [
            "Center for Genome Sciences, United States Army Medical Research Institute of Infectious Diseases, Frederick, Maryland, United States of America."
          ]
        },
        {
          "fullName": [
            "Iversen PL"
          ],
          "firstName": [
            "Patrick L"
          ],
          "lastName": [
            "Iversen"
          ],
          "initials": [
            "PL"
          ],
          "affiliation": [
            "Sarepta Therapeutics, Inc., Cambridge, Massachusetts, United States of America."
          ]
        },
        {
          "fullName": [
            "Bavari S"
          ],
          "firstName": [
            "Sina"
          ],
          "lastName": [
            "Bavari"
          ],
          "initials": [
            "S"
          ],
          "affiliation": [
            "Molecular and Translational Sciences Division, United States Army Medical Research Institute of Infectious Diseases, Frederick, Maryland, United States of America."
          ]
        }
      ]
    }
  ],
  "authorIdList": [
    {
      "authorId": [
        {
          "_": "0000-0001-5062-1938",
          "$": {
            "type": "ORCID"
          }
        }
      ]
    }
  ],
  "journalInfo": [
    {
      "issue": [
        "2"
      ],
      "volume": [
        "10"
      ],
      "journalIssueId": [
        "2368699"
      ],
      "dateOfPublication": [
        "2016 Feb"
      ],
      "monthOfPublication": [
        "2"
      ],
      "yearOfPublication": [
        "2016"
      ],
      "printPublicationDate": [
        "2016-02-01"
      ],
      "journal": [
        {
          "title": [
            "PLoS neglected tropical diseases"
          ],
          "ISOAbbreviation": [
            "PLoS Negl Trop Dis"
          ],
          "medlineAbbreviation": [
            "PLoS Negl Trop Dis"
          ],
          "NLMid": [
            "101291488"
          ],
          "ISSN": [
            "1935-2727"
          ],
          "ESSN": [
            "1935-2735"
          ]
        }
      ]
    }
  ],
  "pageInfo": [
    "e0004456"
  ],
  "abstractText": [
    "Marburg virus (MARV) is an Ebola-like virus in the family Filovirdae that causes sporadic outbreaks of severe hemorrhagic fever with a case fatality rate as high as 90%. AVI-7288, a positively charged antisense phosphorodiamidate morpholino oligomer (PMOplus) targeting the viral nucleoprotein gene, was evaluated as a potential therapeutic intervention for MARV infection following delayed treatment of 1, 24, 48, and 96 h post-infection (PI) in a nonhuman primate lethal challenge model. A total of 30 cynomolgus macaques were divided into 5 groups of 6 and infected with 1,830 plaque forming units of MARV subcutaneously. AVI-7288 was administered by bolus infusion daily for 14 days at 15 mg/kg body weight. Survival was the primary endpoint of the study. While none (0 of 6) of the saline group survived, 83-100% of infected monkeys survived when treatment was initiated 1, 24, 48, or 96 h post-infection (PI). The antisense treatment also reduced serum viremia and inflammatory cytokines in all treatment groups compared to vehicle controls. The antibody immune response to virus was preserved and tissue viral antigen was cleared in AVI-7288 treated animals. These data show that AVI-7288 protects NHPs against an otherwise lethal MARV infection when treatment is initiated up to 96 h PI."
  ],
  "affiliation": [
    "Molecular and Translational Sciences Division, United States Army Medical Research Institute of Infectious Diseases, Frederick, Maryland, United States of America."
  ],
  "language": [
    "eng"
  ],
  "pubModel": [
    "Electronic-eCollection"
  ],
  "pubTypeList": [
    {
      "pubType": [
        "Journal Article"
      ]
    }
  ],
  "subsetList": [
    {
      "subset": [
        {
          "code": [
            "IM"
          ],
          "name": [
            "Index Medicus"
          ]
        }
      ]
    }
  ],
  "fullTextUrlList": [
    {
      "fullTextUrl": [
        {
          "availability": [
            "Open access"
          ],
          "availabilityCode": [
            "OA"
          ],
          "documentStyle": [
            "pdf"
          ],
          "site": [
            "Europe_PMC"
          ],
          "url": [
            "http://europepmc.org/articles/PMC4764691?pdf=render"
          ]
        },
        {
          "availability": [
            "Open access"
          ],
          "availabilityCode": [
            "OA"
          ],
          "documentStyle": [
            "html"
          ],
          "site": [
            "Europe_PMC"
          ],
          "url": [
            "http://europepmc.org/articles/PMC4764691"
          ]
        },
        {
          "availability": [
            "Subscription required"
          ],
          "availabilityCode": [
            "S"
          ],
          "documentStyle": [
            "doi"
          ],
          "site": [
            "DOI"
          ],
          "url": [
            "http://dx.doi.org/10.1371/journal.pntd.0004456"
          ]
        }
      ]
    }
  ],
  "isOpenAccess": [
    "Y"
  ],
  "inEPMC": [
    "Y"
  ],
  "inPMC": [
    "N"
  ],
  "hasPDF": [
    "Y"
  ],
  "hasBook": [
    "N"
  ],
  "hasSuppl": [
    "N"
  ],
  "citedByCount": [
    "0"
  ],
  "hasReferences": [
    "Y"
  ],
  "hasTextMinedTerms": [
    "Y"
  ],
  "hasDbCrossReferences": [
    "N"
  ],
  "hasLabsLinks": [
    "N"
  ],
  "epmcAuthMan": [
    "N"
  ],
  "hasTMAccessionNumbers": [
    "Y"
  ],
  "tmAccessionTypeList": [
    {
      "accessionType": [
        "refseq"
      ]
    }
  ],
  "dateOfCreation": [
    "2016-02-23"
  ],
  "dateOfRevision": [
    "2016-03-08"
  ],
  "electronicPublicationDate": [
    "2016-02-22"
  ],
  "firstPublicationDate": [
    "2016-02-22"
  ],
  "luceneScore": [
    "NaN"
  ]
}